;===============================================================
;ゲーム開始
;===============================================================

game


;===============================================================
;基本設定
;===============================================================

*start

	if %gamefirst=0 mov %textspeed,15		;テキストスピード初期設定
	if %gamefirst=0 mov %autotime,1000		;オートスピード初期設定
	if %gamefirst=0 mov %bgmvol,50			;ＢＧＭボリューム初期設定
	if %gamefirst=0 mov %sevol,80			;ＳＥボリューム初期設定
	if %gamefirst=0 mov %hseanbgm,1			;ＨＢＧＭ初期設定

	mov %gamefirst,1				;初回起動を解除

	if %gamefirst=1 textspeed %textspeed		;テキストスピード設定
	if %gamefirst=1 bgmvol %bgmvol			;ＢＧＭボリューム設定
	if %gamefirst=1 sevol %sevol			;ＳＥボリューム設定

	erasetextwindow 0				;エフェクト時ウインドウ表示したまま

	lookbackflush					;バックログ消去


;===============================================================
;タイトル画面
;===============================================================

;タイトル背景--------------------------------------------------------

*title

	saveoff
	lsp 107,":a;system\logo.bmp",60,20
	bg "bg\bg001.bmp",10,1000			;タイトル画面表示

	bgm"bgm\title.ogg"

	wait 1000

;タイトルメニュー--------------------------------------------------------

*title_logo

	lsp 102,":c/2,0,3;system\title_start.jpg",340,380	;「開始」スプライト用意	
	print 10,400						;「開始」表示
	lsp 103,":c/2,0,3;system\title_load.jpg",340,410	;「ロード」スプライト用意
	print 10,400						;「ロード」表示
	lsp 104,":c/2,0,3;system\title_config.jpg",340,440	;「コンフィグ」スプライト用意
	print 10,400						;「コンフィグ」表示
	lsp 105,":c/2,0,3;system\title_extra.jpg",340,470	;「エキストラ」スプライト用意
	print 10,400						;「エキストラ」表示
	lsp 106,":c/2,0,3;system\title_exit.jpg",340,500	;「終了」スプライト用意
	print 10,400						;「終了」表示

;※順々にエフェクトをかけてフェードで浮かび上がるように表示させる。


;ボタン入力--------------------------------------------------------

*title_menu

	btndef clear

	lsp 107,":a;system\logo.bmp",60,20
	bg "bg\bg001.bmp",1					;タイトル画面表示


	lsp 102,":c/2,0,3;system\title_start.jpg",340,380	;「開始」表示
	lsp 103,":c/2,0,3;system\title_load.jpg",340,410	;「ロード」表示
	lsp 104,":c/2,0,3;system\title_config.jpg",340,440	;「コンフィグ」表示
	lsp 105,":c/2,0,3;system\title_extra.jpg",340,470	;「エキストラ」
	lsp 106,":c/2,0,3;system\title_exit.jpg",340,500	;「終了」表示
	print 1							;瞬間表示

	spbtn 102,102
	spbtn 103,103
	spbtn 104,104
	spbtn 105,105
	spbtn 106,106

	btnwait %bwait

	if %bwait==102 csp -1 : bgmstop : bg black,10,1000 : waittimer 1000 : saveon : goto *game_start	;開始へ
	if %bwait==103 csp -1 : mov %saveorload,1 : gosub *saveload				;ロードへ
	if %bwait==104 csp -1 : gosub *config 						;コンフィグへ
	if %bwait==105 csp -1 : bgm"bgm\zukan.ogg":gosub *extra				;エキストラへ
	if %bwait==106 csp -1 : gosub *game_end						;終了確認へ

goto *title_menu

;※メニュー以外をクリックすると*title_menuへ飛んで入力待ちのループ。

;===============================================================
;ウインドウ処理
;===============================================================

*setwindow_01;通常

mov %txtwindow,1
setwindow3  50,445,35,4,20,20,0,10,10,1,1,#ffffff,50,445,799,599 : textspeed %textspeed
lsp 611,":a;system\window1.bmp",25,400
return



*setwindow_01p;通常

mov %txtwindow,1
setwindow3  50,445,35,4,20,20,0,10,10,1,1,#ffffff,50,445,799,599 : textspeed %textspeed
lsp 611,":a;system\window1.bmp",25,400
print 1
return



*setwindow_03;ゲームオーバー

setwindow3 210,175,28,8,20,20,0,10,10,1,1,#999999,190,165,780,435 : textspeed %textspeed
return



*setwindow_05;大型ウィンドウ

lsp 550,":a;system\window4.bmp",25,50
return



;===============================================================
;選択肢処理
;===============================================================


*customsel

	saveoff
	textoff
	mov %sinkoumode,0 : skipoff : autoclick 0	;スキップ＆オートモード解除

	getcselnum %selectnum		;選択肢の数を取得
	getcselstr $select00,0		;選択肢１のテキスト取得
	getcselstr $select01,1		;選択肢２のテキスト取得
	getcselstr $select02,2		;選択肢３のテキスト取得
	getcselstr $select03,3		;選択肢４のテキスト取得

	name "選択肢"

	if %selectnum>=1 lsp 553,":s/20,20,0;#FFFFFF#FF4444・"+$select00,70,455:spbtn 553,553	;選択肢１
	if %selectnum>=2 lsp 554,":s/20,20,0;#FFFFFF#FF4444・"+$select01,70,482:spbtn 554,554	;選択肢２
	if %selectnum>=3 lsp 555,":s/20,20,0;#FFFFFF#FF4444・"+$select02,70,509:spbtn 555,555	;選択肢３
	if %selectnum>=4 lsp 556,":s/20,20,0;#FFFFFF#FF4444・"+$select03,70,536:spbtn 556,556	;選択肢４

if %nobtn=1 vspl 3,7,0

lsp 7,":c/2,0,3;system\mini_menu_screen.jpg",544,419
if %nobtn=0 spbtn 7,2	;「消去」ボタン表示

if %nobtn=0 && %hsean=0 lsp 3,":c/2,0,3;system\mini_menu_save.jpg",679,419
if %nobtn=0 && %hsean=0 spbtn 3,3	;「セーブ」ボタン表示

if %nobtn=0 && %hsean=0 lsp 4,":c/2,0,3;system\mini_menu_load.jpg",724,419
if %nobtn=0 && %hsean=0 spbtn 4,4	;「ロード」ボタン表示

if %nobtn=0 lsp 5,":c/2,0,3;system\mini_menu_skip.jpg",589,419
if %nobtn=0 spbtn 5,5	;「スキップ」ボタン表示

if %nobtn=0 lsp 6,":c/2,0,3;system\mini_menu_auto.jpg",634,419
if %nobtn=0 spbtn 6,6	;「オート」ボタン表示

if %nobtn=0 && %hsean=1 lsp 9,":c/2,0,3;system\mini_menu_return.jpg",724,419
if %nobtn=0 && %hsean=1 spbtn 9,9

print 10,100

btnwait %bwait

if %bwait=553 btndef clear : barclear : cspl 553,556 :name "":print 1:texton :gosub *appear_sprite :print 1:mov %sentaku,1 : cselgoto 0	;左クリック＝選択肢１
if %bwait=554 btndef clear : barclear : cspl 553,556 :name "":print 1:texton :gosub *appear_sprite :print 1:mov %sentaku,2 : cselgoto 1	;左クリック＝選択肢２
if %bwait=555 btndef clear : barclear : cspl 553,556 :name "":print 1:texton :gosub *appear_sprite :print 1:mov %sentaku,3 : cselgoto 2	;左クリック＝選択肢３
if %bwait=556 btndef clear : barclear : cspl 553,556 :name "":print 1:texton :gosub *appear_sprite :print 1:mov %sentaku,4 : cselgoto 3	;左クリック＝選択肢４

;メニュー表示
if %bwait= -1 && %manuoff=0 gosub *config			;右クリック
if %bwait=-10 && %manuoff=0 gosub *config			;ESCキー
if %bwait=-11 && %manuoff=0 gosub *config			;スペース

;バックログ
if %bwait= -2 gosub *backlog 			;上ホイール
if %bwait=-12 gosub *backlog 			;PageUpキー
if %bwait=-40 gosub *backlog			;上カーソル

if %bwait=2 textoff : gosub *window_delete					;ウインドウ消去

if %bwait=3 textoff : mov %saveorload,0 :screen_vanish: gosub *saveload	:screen_appear:print 1		;セーブモードでセーブ画面へ
if %bwait=4 textoff : mov %saveorload,1 :screen_vanish: gosub *saveload	:screen_appear:print 1		;ロードモードでセーブ画面へ

if %bwait=5 screen_clear : systemcall skip	;スキップモード
if %bwait=6 screen_clear : automode_time %autotime : systemcall automode	;オートモード

if %bwait=7 textoff : gosub *backlog						;バックログへ
if %bwait=8 textoff : gosub *config						;コンフィグへ

if %bwait=9 mov %hsean,0:textoff:mov %hseanwave,0:hseanwave:goto *menu_short

goto *customsel



;======================================================================
;クリック待ち処理
;======================================================================

*text_btn

isskip %sinkouonoff
if %sinkouonoff=1 skip 2
if %battle=1 && %battle_auto=1 automode_time %autotime : systemcall automode
btndef clear

texton									;テキスト表示
saveon									;セーブ

if %nobtn=1 vspl 3,7,0

if %nobtn=0 lsp 7,":c/2,0,3;system\mini_menu_screen.jpg",544,419
if %nobtn=0 spbtn 7,2	;「消去」ボタン表示

if %nobtn=0 && %hsean=0 lsp 3,":c/2,0,3;system\mini_menu_save.jpg",679,419
if %nobtn=0 && %hsean=0 spbtn 3,3	;「セーブ」ボタン表示

if %nobtn=0 && %hsean=0 lsp 4,":c/2,0,3;system\mini_menu_load.jpg",724,419
if %nobtn=0 && %hsean=0 spbtn 4,4	;「ロード」ボタン表示

if %nobtn=0 && %sinkouonoff=1 lsp 5,":c;system\mini_menu_skip_on.jpg",589,419	;「スキップオン」ボタン表示

if %nobtn=0 && %sinkouonoff=0 lsp 5,":c/2,0,3;system\mini_menu_skip.jpg",589,419
if %nobtn=0 && %sinkouonoff=0 spbtn 5,5	;「スキップ」ボタン表示

if %nobtn=0 && %sinkouonoff=0 lsp 5,":c/2,0,3;system\mini_menu_skip.jpg",589,419
if %nobtn=0 && %sinkouonoff=2 spbtn 5,5	;「スキップ」ボタン表示

if %nobtn=0 && %sinkouonoff=2 lsp 6,":c;system\mini_menu_auto_on.jpg",634,419	;「オートオン」ボタン表示

if %nobtn=0 && %sinkouonoff=0 lsp 6,":c/2,0,3;system\mini_menu_auto.jpg",634,419
if %nobtn=0 && %sinkouonoff=0 spbtn 6,6	;「オート」ボタン表示

if %nobtn=0 && %sinkouonoff=1 lsp 6,":c/2,0,3;system\mini_menu_auto.jpg",634,419
if %nobtn=0 && %sinkouonoff=1 spbtn 6,6	;「オート」ボタン表示

if %nobtn=0 && %hsean=1 lsp 9,":c/2,0,3;system\mini_menu_return.jpg",724,419
if %nobtn=0 && %hsean=1 spbtn 9,9

gettext $savetextget							;テキスト取得
getscreenshot 120,90							;スクリーンショット取得

ispage %textkai								;改行待ちか改ページ待ちかを取得
getcursorpos %textlastx,%textlasty					;テキストの末尾の座標を取得

lsph 0,":l/2,160,0;system\cursor0.bmp",0,0				;改行待ちカーソル
lsph 1,":l/2,160,0;system\cursor1.bmp",0,0				;改ページ待ちカーソル

if %textkai=0 amsp 0,%textlastx,%textlasty+10:vsp 0,1:vsp 1,0		;改行待ちカーソル表示
if %textkai=1 amsp 1,%textlastx,%textlasty+10:vsp 1,1:vsp 0,0		;改ページ待ちカーソル表示

print 1

getenter
getcursor
getpage
getskipoff

textbtnwait %bwait 

;テキスト進む
if %bwait=  0 texec : vsp 0,0 : vsp 1,0 : print 1 : return			;左クリック
if %bwait= -3 texec : vsp 0,0 : vsp 1,0 : print 1 : return			;下ホイール
if %bwait=-13 texec : vsp 0,0 : vsp 1,0 : print 1 : return			;PageDown
if %bwait=-19 texec : vsp 0,0 : vsp 1,0 : print 1 : return			;Enterキー
if %bwait=-42 texec : vsp 0,0 : vsp 1,0 : print 1 : return			;下カーソル

;メニュー表示
if %bwait= -1 textoff:gosub *config:csp 203:print 1		;右クリック
if %bwait=-10 textoff:gosub *config:csp 203:print 1		;ESCキー
if %bwait=-11 textoff:gosub *config:csp 203:print 1		;スペース

if %bwait= -2 textoff : vsp 0,0 : vsp 1,0 : print 1 : gosub *backlog 		;上ホイール・バックログ


;メニューボタン

if %bwait=2 textoff : gosub *window_delete					;ウインドウ消去

if %bwait=3 textoff : mov %saveorload,0 :screen_vanish: gosub *saveload	:screen_appear:print 1		;セーブモードでセーブ画面へ
if %bwait=4 textoff : mov %saveorload,1 :screen_vanish: gosub *saveload	:screen_appear:print 1		;ロードモードでセーブ画面へ

if %bwait=5 screen_clear : systemcall skip	;スキップモード
if %bwait=6 screen_clear : automode_time %autotime : systemcall automode	;オートモード

if %bwait=7 textoff : gosub *backlog						;バックログへ
if %bwait=8 textoff : gosub *config						;コンフィグへ

if %bwait=9 mov %hsean,0:textoff:mov %hseanwave,0:hseanwave:goto *menu_short

goto *text_btn




;======================================================================
;ウインドウ消去
;======================================================================

*window_delete

	textoff
	btndef clear
	barclear
		for %sub1=0 to 611 step 1
		vsp %sub1,0
		next
	print 1

	btnwait %bwait
		for %sub1=0 to 611 step 1
		vsp %sub1,1
		next
	print 1
return


*window_delete2

	textoff
	btndef clear
	barclear
		for %sub1=2 to 611 step 1
		vsp %sub1,0
		next
	print 1

	btnwait %bwait
		for %sub1=2 to 611 step 1
		vsp %sub1,1
		next
	print 1
return


;======================================================================
;タイトル
;======================================================================

*reset

	yesnobox %sub1,"タイトルに戻りますか？","タイトル確認"		;イエスノー選択
	if %sub1==0 return						;キャンセル

	if %sub1==1 lsp 0,":c;system\ef_black.jpg",0,0			;イエスならばブラックアウト用意
	print 10,1000							;ブラックアウト実行

	reset								;リセット実行

;===============================================================
;ゲーム終了
;===============================================================

*game_end

	yesnobox %sub1,"終了しますか？","終了確認"			;イエスノー選択
	if %sub1==0 return						;キャンセル

	if %sub1==1 lsp 0,":c;system\ef_black.jpg",0,0			;イエスならばブラックアウト用意
	print 10,1000							;ブラックアウト実行
	end



;======================================================================
;エキストラメニュー
;======================================================================

*extra

	btndef clear : barclear : for %sub1=2 to 500 step 1 : csp %sub1 : next : print 1	;スプライト消去

	bg black,1


*extra_btn

	btndef clear

	lsp 101,":s/15,15,0;#FFFFFF#FF4444抜き所スキップ",330,170:spbtn 101,101
	lsp 102,":s/15,15,0;#bbbbbb統合処理",330,190:spbtn 102,102

	lsp 107,":c/2,0,3;system\menu_title.jpg"  ,330,410:spbtn 107,107	;タイトル

	lsp 108,":c;system\menu.jpg",310,150

	print 1

	btnwait %bwait

	if %bwait=101 goto *menu_short

	if %bwait=107 mov %bgmplaynow,0:bgm"bgm\title.ogg":screen_clear : return	;左クリック＝タイトル
	if %bwait= -1 mov %bgmplaynow,0:bgm"bgm\title.ogg":screen_clear : return	;右クリック
	if %bwait=-10 mov %bgmplaynow,0:bgm"bgm\title.ogg":screen_clear : return	;ＥＳＣキー
	if %bwait=-11 mov %bgmplaynow,0:bgm"bgm\title.ogg":screen_clear : return	;スペースキー
	;※ＢＧＭの演奏を初期化して戻る

	goto *extra_btn



;===================================================================================
;バックログ
;===================================================================================

*backlog

	checkpage %sub1,1					;バックログ１ページ目の有無確認
	if %sub1=0  screen_clear : return			;ログがなければ戻る
	
	btndef clear : barclear : for %sub1=0 to 500 step 1 : csp %sub1 : next : print 1	;スプライト消去

	lsp 501,":a;system\system_bg.jpg",0,0 : print 1		;背景表示

	mov %backlogtotal,0					;バックログ合計を初期化
	mov %backlognow,0					;バックログページ位置を初期化

	gosub *backlog_page					;サブルーチンで初期表示


;===================================================================================
;画面書き換えとボタン入力処理
;===================================================================================

*backlog_btn

	btndef clear

	gosub *backlog_scroll						;サブルーチンで画面書き換え

	gosub *backlog_bar						;サブルーチンでスクロールバー書き換え

	lsp 201,":c;system\m_title_backlog.jpg",20,20			;「バックログ」表示
	lsp 202,":c/2,0,3;system\return.bmp",20,560			;「戻る」表示
	spbtn 202,202
	lsp 203,":a/2,0,3;system\system_cursor_up.jpg",760,0		;カーソル上ボタン表示
	spbtn 203,203
	lsp 204,":a/2,0,3;system\system_cursor_down.jpg",760,550	;カーソル下ボタン表示
	spbtn 204,204
	lsp 205,":c;system\system_bar.jpg",760,0			;バー表示
	lsp 206,":c;system\system_barx_u.jpg",0,0			;上ライン表示
	lsp 207,":c;system\system_barx_d.jpg",0,560			;下ライン表示

	print 1

;ボタン入力-------------------------------------------------------------

	btndown 1							;ボタンの連続入力取得
	getpage								;pageup&pagedownキー取得
	btnwait %bwait							;ボタン入力待ち

	if %bwait> 0 && %bwait<4 && %backlogtotal<=4 : goto *backlog_btn				;左クリック＝バー（バックログ合計４ページ以下）
	if %bwait> 0 && %bwait<4 && %bwait<=%backlogtotal mov %backlognow,%backlogtotal-4      : goto *backlog_btn	;左クリック＝バー（バー最上部）
	if %bwait>=4 && %bwait<=%backlogtotal             mov %backlognow,%backlogtotal-%bwait : goto *backlog_btn	;左クリック＝バー

	if %bwait=202 wait 100 : screen_clear : print 1 : return						;左クリック＝戻る
	if %bwait= -1 wait 100 : screen_clear : print 1 : return						;右クリック
	if %bwait=-10 wait 100 : screen_clear : print 1 : return						;ＥＳＣキー
	if %bwait=-11 wait 100 : screen_clear : print 1 : return						;スペースキー

	if %bwait=203 && %backlogtotal-4>%backlognow mov %backlognow,%backlognow+1 : wait 100	;左クリック＝ページカーソル上ボタン
	if %bwait= -2 && %backlogtotal-4>%backlognow mov %backlognow,%backlognow+1		;上ホイール
	if %bwait=-12 && %backlogtotal-4>%backlognow mov %backlognow,%backlognow+1		;PageUpキー

	if %bwait=204 && 0<%backlognow mov %backlognow,%backlognow-1 : wait 100			;左クリック＝ページカーソル下ボタン
	if %bwait= -3 && 0<%backlognow mov %backlognow,%backlognow-1				;下ホイール
	if %bwait=-13 && 0<%backlognow mov %backlognow,%backlognow-1				;PageDownキー

goto *backlog_btn


;===================================================================================
;バックログの初期表示
;===================================================================================

;回想ページ合計算出処理--------------------------------------------------------

*backlog_page

	mov %backlogtotal,%backlogtotal+1				;backlogtotalにページ数を入力
	checkpage %sub1,%backlogtotal					;そのページ数のデータ有無確認
	if %sub1=1 goto *backlog_page					;あればさらに前のページ確認へ

	return

;===================================================================================
;バックログのスクロール
;===================================================================================

*backlog_scroll

;回想ページログ取得処理--------------------------------------------------------

	getlog $backloglook,%backlognow						;現ページのログを取得
	           strsp 301,$backloglook,50,430,35,4,20,20,0,10,1,1,#FFFFFF	;現ページ表示

	checkpage %sub1,%backlognow+1						;前１ページのログの有無確認
	if %sub1=1 getlog $backloglook,%backlognow+1				;前１ページのログを取得
	if %sub1=1 strsp 302,$backloglook,50,310,35,4,20,20,0,10,1,1,#FFFFFF	;前１ページ表示

	checkpage %sub1,%backlognow+2						;前２ページのログの有無確認
	if %sub1=1 getlog $backloglook,%backlognow+2				;前２ページのログを取得
	if %sub1=1 strsp 303,$backloglook,50,180,35,4,20,20,0,10,1,1,#FFFFFF	;前２ページ表示

	checkpage %sub1,%backlognow+3						;前３ページのログの有無確認
	if %sub1=1 getlog $backloglook,%backlognow+3				;前３ページのログを取得
	if %sub1=1 strsp 304,$backloglook,50, 50,35,4,20,20,0,10,1,1,#FFFFFF	;前３ページ表示

	return


;===================================================================================
;スクロールバー
;===================================================================================

*backlog_bar

	mov %backlogbarone,48000/(%backlogtotal)				;バーの一個の長さ
	if %backlogtotal= 1 mov %backlogbarone2,%backlogbarone*1		;バーの一個の長さ
	if %backlogtotal= 2 mov %backlogbarone2,%backlogbarone*2		;バーの一個の長さ
	if %backlogtotal= 3 mov %backlogbarone2,%backlogbarone*3		;バーの一個の長さ
	if %backlogtotal>=4 mov %backlogbarone2,%backlogbarone*4		;バーの一個の長さ

	mov %backlogbary,48000-%backlogbarone*%backlognow-%backlogbarone2 	;バー表示Ｙ座標算出

	mov %backlogbary,%backlogbary+6000					;画面表示基点を足す

	bar 0,1,767,%backlogbary/100,16,%backlogbarone2/100,1,#DDDDDD		;バー登録

	for %sub1=0 to %backlogtotal step 1					;バックログ合計まで繰り返す
	btn %sub1,740,(%backlogbarone*(%sub1-1)+6000)/100,60,%backlogbarone,0,0	;ボタン登録
	next

	return


;===================================================================================
;セーブ＆ロード
;===================================================================================

*saveload

	mov %savetotal,100					;●セーブデータ最大数・可変（１００以下）

	btndef clear : barclear : for %sub1=0 to 500 step 1 : csp %sub1 : next : print 1	;スプライト消去

	lsp 501,":a;system\system_bg.jpg",0,0 : print 1		;背景表示

;===================================================================================
;画面書き換えとボタン入力処理
;===================================================================================

*save_btn

	btndef clear							;ボタン消去

	csp 208								;「ＮＥＷ！」表示消去

	gosub *saveload_screen						;サブルーチンでデータリスト表示

	gosub *saveload_bar						;サブルーチンでスクロールバー書き換え

	if %saveorload=0 lsp 201,":c;system\m_title_save.jpg",20,20	;セーブなら「セーブ」オン表示
	if %saveorload=1 lsp 201,":c;system\m_title_load.jpg",20,20	;ロードなら「ロード」オン表示

	lsp 202,":c/2,0,3;system\return.bmp",20,560			;「戻る」ボタン表示
	spbtn 202,202
	lsp 203,":a/2,0,3;system\system_cursor_up.jpg",760,0		;カーソル上ボタン表示
	spbtn 203,203
	lsp 204,":a/2,0,3;system\system_cursor_down.jpg",760,550	;カーソル下ボタン表示
	spbtn 204,204
	lsp 205,":c;system\system_bar.jpg",760,0			;バー表示
	lsp 206,":c;system\system_barx_u.jpg",0,0			;上ライン表示
	lsp 207,":c;system\system_barx_d.jpg",0,560			;下ライン表示

;ボタン入力-------------------------------------------------------------

	btndown 1						;ボタンの連続入力取得
	getpage 						;pageup&pagedownキー取得
	btnwait %bwait						;ボタン入力をbwaitに入力

	if %bwait>0            && %bwait<=%savetotal-5 mov %savepagenow,%bwait-1     : goto *save_btn	;左クリック＝バー
	if %bwait>%savetotal-5 && %bwait<=%savetotal   mov %savepagenow,%savetotal-5 : goto *save_btn	;左クリック＝バー（バー最下部）

	if %saveorload=0 && %bwait>=301 && %bwait<=400 gosub *save_yesno : wait 100 : goto *saveload	;左クリック＝セーブデータ
	if %saveorload=1 && %bwait>=301 && %bwait<=400 gosub *load_yesno : wait 100 : goto *save_btn	;左クリック＝ロードデータ

	if %bwait=202 wait 100 : screen_clear : return							;左クリック＝戻る
	if %bwait= -1 wait 100 : screen_clear : return							;右クリック
	if %bwait=-10 wait 100 : screen_clear : return							;ＥＳＣキー
	if %bwait=-11 wait 100 : screen_clear : return							;スペースキー

	if %bwait=203 && %savepagenow>0 mov %savepagenow,%savepagenow-1 : wait 100			;左クリック＝ページ上ボタン
	if %bwait= -2 && %savepagenow>0 mov %savepagenow,%savepagenow-1					;上ホイール
	if %bwait=-12 && %savepagenow>0 mov %savepagenow,%savepagenow-1					;PageDownキー

	if %bwait=204 && %savepagenow<%savetotal-5 mov %savepagenow,%savepagenow+1 : wait 100		;左クリック＝ページ下ボタン
	if %bwait= -3 && %savepagenow<%savetotal-5 mov %savepagenow,%savepagenow+1			;下ホイール
	if %bwait=-13 && %savepagenow<%savetotal-5 mov %savepagenow,%savepagenow+1			;PageUpキー

	goto *save_btn


;===================================================================================
;データリスト表示
;===================================================================================

;セーブデータの表示-------------------------------------------------------------

*saveload_screen

	for %sub10=1 to 5 step 1					;位置番号が５になるまで繰り返す
		mov %savedatanow,%savepagenow+%sub10
		savefileexist %save0or1,%savedatanow			;セーブデータの有無を調べてsave0or1に入力
		if %sub10=1 mov %savepicx,80 : mov %savepicy,56		;基準の座標をＸ80・Ｙ55に設定
		if %save0or1=0 gosub *data_none				;データが存在しないならダミー表示へ
		if %save0or1=1 gosub *data_make				;データが存在するなら表示用データ作成へ
		mov %savepicy,%savepicy+100				;Ｙ座標に100を足して次へ回す
	next

	return


;セーブデータ無し----------------------------------------------------------

*data_none

	mov $sub2,""								;sub2の中身を消去
	mov $savenum,":s/20,20,0,0,0;#FF0000"					;表示座標等結合
	itoa2 $sub1,%savedatanow						;セーブ番号を文字列に変換
	len %sub1,$sub1								;文字数を取得
	if %sub1<=4 mov $sub2,"０"						;０を付加
	if %sub1==2 add $sub2,"０"						;０を付加
	add $savenum,$sub2 :add $savenum,$sub1					;セーブ番号を付加

	lsp   %sub10+10+300,":s/20,20,1;#FFFFFF",%savepicx,%savepicy			;セーブ画面に無効文字列表示
	lsp   %sub10+20+300,$savenum,%savepicx+180,%savepicy+5				;セーブ番号表示
	lsp   %sub10+30+300,":s/20,20,1;#FFFFFF",%savepicx+260,%savepicy+5		;セーブ画面に無効文字列表示
	lsp   %sub10+40+300,":s/20,20,1;#FFFFFF",%savepicx+180,%savepicy+25		;セーブ画面に無効文字列表示
	lsp   %sub10+50+300,":a/2,0,3;system\saveload_dummy.jpg",%savepicx,%savepicy	;ダミー画像表示
	spbtn %sub10+50+300,%sub10+50+300						;位置番号でボタン化
;※スクロール時にデータ無し表示で上書きすることでデータ有り表示を消去する
;※cspとlspを繰り返すと重くなるが、上書きなら軽い

	return


;セーブデータ有り----------------------------------------------------------

*data_make

	mov $savescreen,":c;save\save"						;savescreenにフォルダの文字列を入力
	itoa $sub1,%savedatanow							;savedatanowのセーブ番号を文字列に変換
	add $savescreen,$sub1							;savescreenとセーブ番号を結合
	add $savescreen,".bmp"							;savescreenに拡張子を結合

	mov $sub2,""								;sub2の中身を消去
	mov $savenum,":s/20,20,0,0,0;#FF0000"					;表示座標等結合
	itoa2 $sub1,%savedatanow						;セーブ番号を文字列に変換
	len %sub1,$sub1								;文字数を取得
	if %sub1<=4 mov $sub2,"０"						;０を付加
	if %sub1==2 add $sub2,"０"						;０を付加
	add $savenum,$sub2 :add $savenum,$sub1					;セーブ番号を付加

	mov %sub1,%savedatanow+2000						;セーブデータ取得のため2000足す
	split $%sub1,",",$savemonth,$saveday,$savehour,$saveminute,$savetext	;セーブデータからデータ切り出し
	mov $savetime,":s/20,20,0,0,0;#FF0000"					;savetimeにスクリプト文字列を入力
	add $savetime,$savemonth  : add $savetime,"月"				;savetimeに月を結合
	add $savetime,$saveday    : add $savetime,"日"				;savetimeに日を結合
	add $savetime,$savehour   : add $savetime,"時"				;savetimeに時を結合
	add $savetime,$saveminute : add $savetime,"分"				;savetimeに分を結合

	lsp   %sub10+10+300,$savescreen,%savepicx,%savepicy					;セーブ画面表示
	lsp   %sub10+20+300,$savenum,%savepicx+180,%savepicy+5					;セーブ番号表示
	lsp   %sub10+30+300,$savetime,%savepicx+260,%savepicy+5					;セーブ日時表示
	strsp %sub10+40+300,$savetext,%savepicx+180,%savepicy+25,22,2,20,20,0,10,1,1,#FFFFFF	;セーブテキスト表示
	lsp   %sub10+50+300,":a/2,0,3;system\saveload_bookmark.jpg",%savepicx,%savepicy		;クリック範囲画像表示
	spbtn %sub10+50+300,%sub10+50+300							;クリック範囲画像ボタン化


	if %savedatanow=%savenew lsp 208,":a;system\save_new.jpg",%savepicx+540,%savepicy+5	;最新セーブ番号なら「ＮＥＷ！」表示

	return


;===================================================================================
;スクロールバー
;===================================================================================

*saveload_bar

	mov %savebarone,48000/%savetotal					;バーの一個の長さ
	if %savetotal= 1 mov %savebarone2,%savebarone*1				;バーの一個の長さ
	if %savetotal= 2 mov %savebarone2,%savebarone*2				;バーの一個の長さ
	if %savetotal= 3 mov %savebarone2,%savebarone*3				;バーの一個の長さ
	if %savetotal= 4 mov %savebarone2,%savebarone*4				;バーの一個の長さ
	if %savetotal>=5 mov %savebarone2,%savebarone*5				;バーの一個の長さ

	mov %savebary,48000-%savebarone*(%savetotal-%savepagenow)		;バー表示Ｙ座標算出

	mov %savebary,%savebary+6000						;画面表示基点を足す

	bar 0,1,767,%savebary/100,16,%savebarone2/100,1,#DDDDDD			;バー登録

	for %sub1=0 to %savetotal step 1					;セーブデータ最大数まで繰り返す
	btn %sub1,740,(%savebarone*(%sub1-1)+6000)/100,60,%savebarone,0,0	;ボタン登録
	next

	return

;===================================================================================
;セーブ処理
;===================================================================================

*save_yesno

	mov %savedatanow,%bwait-50-300+%savepagenow		;セーブ番号を算出

	yesnobox %sub1,"セーブしますか？","セーブ確認"		;イエスノー選択
	if %sub1==0 return					;キャンセル

	mid $savetextget,$savetextget,0,88							;テキスト冒頭４４文字を切り出し

	mov $sub1,""						;ルビ処理用変数初期化
	mov $sub2,""
	mov $sub3,""
	mov $sub4,""
	mov $sub5,""
	mov $sub6,""
	mov $sub7,""
	mov $sub8,""
	mov $sub9,""
	mov $sub10,""

	split $savetextget,"(",$sub1,$sub2,$sub4,$sub6,$sub8	;ルビ除去処理
	split $sub2,"/",$sub2,$sub3
	split $sub3,")",$sub3,$sub3
	split $sub4,"/",$sub4,$sub5
	split $sub5,")",$sub5,$sub5
	split $sub6,"/",$sub6,$sub7
	split $sub7,")",$sub7,$sub7
	split $sub8,"/",$sub8,$sub9
	split $sub9,")",$sub9,$sub9

	mov $savetextget,$sub1+$sub2+$sub3+$sub4+$sub5+$sub6+$sub7+$sub8+$sub9	;ルビ除去後再結合

	input $savetextget,"コメントを入力してください。",$savetextget,88,1,300,85,200,20	;セーブコメント入力

	mov $savescreen,"save\save"						;savescreenにフォルダの文字列を入力
	itoa $sub1,%savedatanow							;savedatanowのセーブ番号を文字列に変換
	add $savescreen,$sub1							;savescreenとセーブ番号を結合
	add $savescreen,".bmp"							;savescreenに拡張子を結合

	savescreenshot2 $savescreen						;セーブ画面保存

	savegame %savedatanow							;現在のデータをセーブ
	savetime %savedatanow,%savemonth,%saveday,%savehour,%saveminute		;セーブ日時を切り出し

	itoa2 $savemonth,%savemonth   :len %sub1,$savemonth  :if %sub1==2 mov $sub1,"０" :add $sub1,$savemonth  :mov $savemonth,$sub1
	itoa2 $saveday,%saveday       :len %sub1,$saveday    :if %sub1==2 mov $sub1,"０" :add $sub1,$saveday    :mov $saveday,$sub1
	itoa2 $savehour,%savehour     :len %sub1,$savehour   :if %sub1==2 mov $sub1,"０" :add $sub1,$savehour   :mov $savehour,$sub1
	itoa2 $saveminute,%saveminute :len %sub1,$saveminute :if %sub1==2 mov $sub1,"０" :add $sub1,$saveminute :mov $saveminute,$sub1

	mid $savetext,$savetextget,0,88			;セーブテキストを取得
	mov $savedata,$savemonth  :add $savedata,","	;月を結合
	add $savedata,$saveday    :add $savedata,","	;日を結合
	add $savedata,$savehour   :add $savedata,","	;時を結合
	add $savedata,$saveminute :add $savedata,","	;分を結合
	add $savedata,$savetext				;テキストを結合

	mov %savedata,%savedatanow+2000			;グローバル変数の番号を指定
	mov $%savedata,$savedata			;グローバル変数に結合したデータを保存

	mov %savenew,%savedatanow			;セーブ番号をグローバル変数の最新セーブ番号に入力

	return

;===================================================================================
;ロード処理
;===================================================================================

*load_yesno

	mov %savedatanow,%bwait-50-300+%savepagenow			;セーブ番号を算出

	savefileexist %sub1,%savedatanow				;セーブデータの有無を確認
	if %sub1==0 return						;なければそのまま戻る
	yesnobox %sub1,"ロードしますか？","ロード確認"			;イエスノー選択
	if %sub1==0 return						;ノーならばそのまま戻る

	barclear

	if %sub1==1 lsp 2,":c;system\ef_black.jpg",0,0			;イエスならばブラックアウト用意
	print 10,1000							;ブラックアウト実行
	loadgame %savedatanow						;ロード実行


*load_config

if %gamefirst=1 textspeed %textspeed		;テキストスピード設定
if %gamefirst=1 bgmvol %bgmvol			;ＢＧＭボリューム設定
if %gamefirst=1 sevol %sevol			;ＳＥボリューム設定
if %gamefirst=1 && %windowsize=0 menu_window 	;ウインドウサイズ設定
if %gamefirst=1 && %windowsize=1 menu_full 	;ウインドウサイズ設定
if %hseanwave>0 hseanwave
if %hseanvoice>0 hseanvoice

if %txtwindow=1 gosub *setwindow_01p
if %txtwindow=2 gosub *setwindow_02p
return


;======================================================================
;スプライト
;======================================================================
;000-100　スクロールバー
;201-208　システム関係
;301-400　セーブデータ



;===================================================================================
;コンフィグ
;===================================================================================

*config

	btndef clear : barclear : for %sub1=0 to 500 step 1 : csp %sub1 : next : print 1	;スプライト消去

	lsp 501,":a;system\system_bg.jpg",0,0 : print 1		;背景表示

;===================================================================================
;画面書き換えと画面表示
;===================================================================================

*config_btn

	btndef clear

	lsp 201,":c;system\m_title_config.jpg",20,20			;「コンフィグ」表示
	lsp 202,":c/2,0,3;system\return.bmp",20,560			;「戻る」表示
	spbtn 202,202


	lsp 203,":c;system\configback.jpg",0,0 				;コンフィグ画面用背景表示

;テキストスピード-------------------------------------------------------------

	if %textspeed=30 lsp 101,":a;system\config_cursor1.jpg",45,100			;カーソル表示
	if %textspeed=27 lsp 101,":a;system\config_cursor1.jpg",75,100
	if %textspeed=24 lsp 101,":a;system\config_cursor1.jpg",105,100
	if %textspeed=21 lsp 101,":a;system\config_cursor1.jpg",135,100
	if %textspeed=18 lsp 101,":a;system\config_cursor1.jpg",165,100
	if %textspeed=15 lsp 101,":a;system\config_cursor1.jpg",195,100
	if %textspeed=12 lsp 101,":a;system\config_cursor1.jpg",225,100
	if %textspeed=9  lsp 101,":a;system\config_cursor1.jpg",255,100
	if %textspeed=6  lsp 101,":a;system\config_cursor1.jpg",285,100
	if %textspeed=3  lsp 101,":a;system\config_cursor1.jpg",315,100
	if %textspeed=0  lsp 101,":a;system\config_cursor1.jpg",345,100

	btn 101,35,80,30,60,0,0								;ボタン
	btn 102,65,80,30,60,0,0
	btn 103,95,80,30,60,0,0
	btn 104,125,80,30,60,0,0
	btn 105,155,80,30,60,0,0
	btn 106,185,80,30,60,0,0
	btn 107,215,80,30,60,0,0
	btn 108,245,80,30,60,0,0
	btn 109,275,80,30,60,0,0
	btn 110,305,80,30,60,0,0
	btn 111,335,80,30,60,0,0


;オートモードスピード-------------------------------------------------------------

	if %autotime=2000 lsp 102,":a;system\config_cursor1.jpg",45,200			;カーソル表示
	if %autotime=1800 lsp 102,":a;system\config_cursor1.jpg",75,200
	if %autotime=1600 lsp 102,":a;system\config_cursor1.jpg",105,200
	if %autotime=1400 lsp 102,":a;system\config_cursor1.jpg",135,200
	if %autotime=1200 lsp 102,":a;system\config_cursor1.jpg",165,200
	if %autotime=1000 lsp 102,":a;system\config_cursor1.jpg",195,200
	if %autotime=800  lsp 102,":a;system\config_cursor1.jpg",225,200
	if %autotime=600  lsp 102,":a;system\config_cursor1.jpg",255,200
	if %autotime=400  lsp 102,":a;system\config_cursor1.jpg",285,200
	if %autotime=200  lsp 102,":a;system\config_cursor1.jpg",315,200
	if %autotime=1    lsp 102,":a;system\config_cursor1.jpg",345,200

	btn 121,35,180,30,60,0,0							;ボタン
	btn 122,65,180,30,60,0,0
	btn 123,95,180,30,60,0,0
	btn 124,125,180,30,60,0,0
	btn 125,155,180,30,60,0,0
	btn 126,185,180,30,60,0,0
	btn 127,215,180,30,60,0,0
	btn 128,245,180,30,60,0,0
	btn 129,275,180,30,60,0,0
	btn 130,305,180,30,60,0,0
	btn 131,335,180,30,60,0,0


;ＢＧＭボリューム-------------------------------------------------------------

	if %bgmvol=0   lsp 103,":a;system\config_cursor1.jpg",45,300			;カーソル表示
	if %bgmvol=10  lsp 103,":a;system\config_cursor1.jpg",75,300
	if %bgmvol=20  lsp 103,":a;system\config_cursor1.jpg",105,300
	if %bgmvol=30  lsp 103,":a;system\config_cursor1.jpg",135,300
	if %bgmvol=40  lsp 103,":a;system\config_cursor1.jpg",165,300
	if %bgmvol=50  lsp 103,":a;system\config_cursor1.jpg",195,300
	if %bgmvol=60  lsp 103,":a;system\config_cursor1.jpg",225,300
	if %bgmvol=70  lsp 103,":a;system\config_cursor1.jpg",255,300
	if %bgmvol=80  lsp 103,":a;system\config_cursor1.jpg",285,300
	if %bgmvol=90  lsp 103,":a;system\config_cursor1.jpg",315,300
	if %bgmvol=100 lsp 103,":a;system\config_cursor1.jpg",345,300

	btn 141,35,280,30,60,0,0							;ボタン
	btn 142,65,280,30,60,0,0
	btn 143,95,280,30,60,0,0
	btn 144,125,280,30,60,0,0
	btn 145,155,280,30,60,0,0
	btn 146,185,280,30,60,0,0
	btn 147,215,280,30,60,0,0
	btn 148,245,280,30,60,0,0
	btn 149,275,280,30,60,0,0
	btn 150,305,280,30,60,0,0
	btn 151,335,280,30,60,0,0

;ＳＥボリューム-------------------------------------------------------------

	if %sevol=0   lsp 104,":a;system\config_cursor1.jpg",45,400			;カーソル表示
	if %sevol=10  lsp 104,":a;system\config_cursor1.jpg",75,400
	if %sevol=20  lsp 104,":a;system\config_cursor1.jpg",105,400
	if %sevol=30  lsp 104,":a;system\config_cursor1.jpg",135,400
	if %sevol=40  lsp 104,":a;system\config_cursor1.jpg",165,400
	if %sevol=50  lsp 104,":a;system\config_cursor1.jpg",195,400
	if %sevol=60  lsp 104,":a;system\config_cursor1.jpg",225,400
	if %sevol=70  lsp 104,":a;system\config_cursor1.jpg",255,400
	if %sevol=80  lsp 104,":a;system\config_cursor1.jpg",285,400
	if %sevol=90  lsp 104,":a;system\config_cursor1.jpg",315,400
	if %sevol=100 lsp 104,":a;system\config_cursor1.jpg",345,400

	btn 161,35,380,30,60,0,0							;ボタン
	btn 162,65,380,30,60,0,0
	btn 163,95,380,30,60,0,0
	btn 164,125,380,30,60,0,0
	btn 165,155,380,30,60,0,0
	btn 166,185,380,30,60,0,0
	btn 167,215,380,30,60,0,0
	btn 168,245,380,30,60,0,0
	btn 169,275,380,30,60,0,0
	btn 170,305,380,30,60,0,0
	btn 171,335,380,30,60,0,0

;文章表示単位-------------------------------------------------------------

	if %click=0 : lsp 111,":a;system\config_cursor2.jpg",420,110
	if %click=1 : lsp 111,":a;system\config_cursor2.jpg",610,110

	btn 181,420,100,170,40,0,0							;ボタン表示
	btn 182,610,100,170,40,0,0

;スキップ-------------------------------------------------------------

	if %skip=0 : lsp 112,":a;system\config_cursor2.jpg",420,210
	if %skip=1 : lsp 112,":a;system\config_cursor2.jpg",610,210

	btn 183,420,200,170,40,0,0							;ボタン表示
	btn 184,610,200,170,40,0,0

;演出速度-------------------------------------------------------------

	if %effectspeed=0 : lsp 113,":a;system\config_cursor3.jpg",420,310
	if %effectspeed=1 : lsp 113,":a;system\config_cursor3.jpg",540,310
	if %effectspeed=2 : lsp 113,":a;system\config_cursor3.jpg",660,310

	btn 185,420,300,120,40,0,0							;ボタン表示
	btn 186,540,300,120,40,0,0
	btn 187,660,300,120,40,0,0

;ウインドウサイズ-------------------------------------------------------------

	if %windowsize=0 : lsp 114,":a;system\config_cursor2.jpg",420,410
	if %windowsize=1 : lsp 114,":a;system\config_cursor2.jpg",610,410

	btn 188,420,400,170,40,0,0							;ボタン表示
	btn 189,610,400,170,40,0,0

;ＨＢＧＭ-------------------------------------------------------------

	if %hseanbgm=1 : lsp 115,":a;system\config_cursor3.jpg",420,510
	if %hseanbgm=2 : lsp 115,":a;system\config_cursor3.jpg",540,510
	if %hseanbgm=3 : lsp 115,":a;system\config_cursor3.jpg",660,510

	btn 190,420,500,120,40,0,0							;ボタン表示
	btn 191,540,500,120,40,0,0
	btn 192,660,500,120,40,0,0

	print 1


;ボタン入力-------------------------------------------------------------

	btnwait %bwait									;ボタン入力待ち

	if %bwait=101 textspeed 30 : mov %textspeed,30 : goto *config_btn
	if %bwait=102 textspeed 27 : mov %textspeed,27 : goto *config_btn
	if %bwait=103 textspeed 24 : mov %textspeed,24 : goto *config_btn
	if %bwait=104 textspeed 21 : mov %textspeed,21 : goto *config_btn
	if %bwait=105 textspeed 18 : mov %textspeed,18 : goto *config_btn
	if %bwait=106 textspeed 15 : mov %textspeed,15 : goto *config_btn
	if %bwait=107 textspeed 12 : mov %textspeed,12 : goto *config_btn
	if %bwait=108 textspeed 9  : mov %textspeed,9  : goto *config_btn
	if %bwait=109 textspeed 6  : mov %textspeed,6  : goto *config_btn
	if %bwait=110 textspeed 3  : mov %textspeed,3  : goto *config_btn
	if %bwait=111 textspeed 0  : mov %textspeed,0  : goto *config_btn

	if %bwait=121 mov %autotime,2000 : goto *config_btn
	if %bwait=122 mov %autotime,1800 : goto *config_btn
	if %bwait=123 mov %autotime,1600 : goto *config_btn
	if %bwait=124 mov %autotime,1400 : goto *config_btn
	if %bwait=125 mov %autotime,1200 : goto *config_btn
	if %bwait=126 mov %autotime,1000 : goto *config_btn
	if %bwait=127 mov %autotime,800  : goto *config_btn
	if %bwait=128 mov %autotime,600  : goto *config_btn
	if %bwait=129 mov %autotime,400  : goto *config_btn
	if %bwait=130 mov %autotime,200  : goto *config_btn
	if %bwait=131 mov %autotime,1    : goto *config_btn

	if %bwait=141 bgmvol 0   : mov %bgmvol,0  : goto *config_btn
	if %bwait=142 bgmvol 10  : mov %bgmvol,10 : goto *config_btn
	if %bwait=143 bgmvol 20  : mov %bgmvol,20 : goto *config_btn
	if %bwait=144 bgmvol 30  : mov %bgmvol,30 : goto *config_btn
	if %bwait=145 bgmvol 40  : mov %bgmvol,40 : goto *config_btn
	if %bwait=146 bgmvol 50  : mov %bgmvol,50 : goto *config_btn
	if %bwait=147 bgmvol 60  : mov %bgmvol,60 : goto *config_btn
	if %bwait=148 bgmvol 70  : mov %bgmvol,70 : goto *config_btn
	if %bwait=149 bgmvol 80  : mov %bgmvol,80 : goto *config_btn
	if %bwait=150 bgmvol 90  : mov %bgmvol,90 : goto *config_btn
	if %bwait=151 bgmvol 100 : mov %bgmvol,100 : goto *config_btn

	if %bwait=161 sevol 0   : mov %sevol,0   : goto *config_btn
	if %bwait=162 sevol 10  : mov %sevol,10  : goto *config_btn
	if %bwait=163 sevol 20  : mov %sevol,20  : goto *config_btn
	if %bwait=164 sevol 30  : mov %sevol,30  : goto *config_btn
	if %bwait=165 sevol 40  : mov %sevol,40  : goto *config_btn
	if %bwait=166 sevol 50  : mov %sevol,50  : goto *config_btn
	if %bwait=167 sevol 60  : mov %sevol,60  : goto *config_btn
	if %bwait=168 sevol 70  : mov %sevol,70  : goto *config_btn
	if %bwait=169 sevol 80  : mov %sevol,80  : goto *config_btn
	if %bwait=170 sevol 90  : mov %sevol,90  : goto *config_btn
	if %bwait=171 sevol 100 : mov %sevol,100 : goto *config_btn

	if %bwait=181 menu_click_def  : mov %click,0 : goto *config_btn
	if %bwait=182 menu_click_page : mov %click,1 : goto *config_btn

	if %bwait=183 kidokumode 1 : mov %skip,0 : goto *config_btn
	if %bwait=184 kidokumode 0 : mov %skip,1 : goto *config_btn

	if %bwait=185 seteffectspeed 0 : mov %effectspeed,0 : goto *config_btn
	if %bwait=186 seteffectspeed 1 : mov %effectspeed,1 : goto *config_btn
	if %bwait=187 seteffectspeed 2 : mov %effectspeed,2 : goto *config_btn

	if %bwait=188 menu_window : mov %windowsize,0 : goto *config_btn
	if %bwait=189 menu_full   : mov %windowsize,1 : goto *config_btn

	if %bwait=190 mov %hseanbgm,1:gosub *hseanbgm_config : goto *config_btn
	if %bwait=191 mov %hseanbgm,2:gosub *hseanbgm_config : goto *config_btn
	if %bwait=192 mov %hseanbgm,3:gosub *hseanbgm_config : goto *config_btn

	if %bwait=202 wait 100 : screen_clear : return		;左クリック＝戻る
	if %bwait= -1 wait 100 : screen_clear : return		;右クリック
	if %bwait=-10 wait 100 : screen_clear : return		;ＥＳＣキー
	if %bwait=-11 wait 100 : screen_clear : return		;スペースキー

goto *config_btn


;===================================================================================
;ユーザー定義命令
;===================================================================================


*name

getparam $platename
if $platename="" csp 599:print 1:return
len %name_count,$platename
lsp 599,":s/20,20,0;#FFFFFF"+$platename,155-%name_count*5,408:print 1
return



*vspl

getparam %teigi2,%teigi3,%teigi1
for %sub1=%teigi2 to %teigi3
vsp %sub1,%teigi1
next
return



*cspl

getparam %teigi2,%teigi3
for %sub1=%teigi2 to %teigi3
csp %sub1
next
return



*sean_change

saveoff
getparam $haikei
cspl 3,7
csp 611
cspl 700,705
bg black,7,1500
bg "bg\"+$haikei+".bmp",7,1500
wait 500
gosub *setwindow_01p
return



*screen_clear

btndef clear
barclear
cspl 0,550
return



*screen_clear2

btndef clear
barclear
cspl 551,710
return



*screen_vanish

btndef clear
barclear
vspl 551,710,0
return



*screen_appear

btndef clear
barclear
vspl 551,710,1
return



*hseanwave

if %con_hse=1 return
saveoff
if %hseanwave= 0 dwavestop 5:dwavestop 13
if %hseanwave= 1 dwaveloop 5,"se\hsean01_innerworks_a1.ogg"
if %hseanwave= 2 dwaveloop 5,"se\hsean02_innerworks_a2.ogg"
if %hseanwave= 3 dwaveloop 5,"se\hsean03_innerworks_a3.ogg"
if %hseanwave= 4 dwaveloop 5,"se\hsean04_innerworks_a4.ogg"
if %hseanwave= 5 dwaveloop 5,"se\hsean05_innerworks_a5.ogg"
if %hseanwave= 6 dwaveloop 5,"se\hsean06_innerworks_a6.ogg"
if %hseanwave= 7 dwaveloop 5,"se\hsean07_innerworks_a7.ogg"
if %hseanwave= 8 dwaveloop 5,"se\hsean08_innerworks_a8.ogg"
if %hseanwave= 9 dwaveloop 5,"se\hsean09_innerworks_b1.ogg"
if %hseanwave=10 dwaveloop 5,"se\hsean10_innerworks_b2.ogg"
if %hseanwave=11 dwaveloop 5,"se\hsean11_innerworks_c1.ogg"
if %hseanwave=12 dwaveloop 5,"se\hsean12_innerworks_c2.ogg"
if %hseanwave=13 dwaveloop 5,"se\hsean13_innerworks_c3.ogg"
if %hseanwave=14 dwaveloop 5,"se\hsean14_kyuin1.ogg"
if %hseanwave=15 dwaveloop 5,"se\hsean15_kyuin2.ogg"
if %hseanwave=16 dwaveloop 5,"se\hsean16_kyuin3.ogg"
if %hseanwave=17 dwaveloop 5,"se\hsean17_sigoki.ogg"
if %hseanwave=18 dwaveloop 5,"se\hsean18_slime1.ogg"
if %hseanwave=19 dwaveloop 5,"se\hsean19_slime2.ogg"
if %hseanwave=20 dwaveloop 5,"se\hsean20_tentacle1.ogg"
if %hseanwave=21 dwaveloop 5,"se\hsean21_tentacle2.ogg"
if %hseanwave=22 dwaveloop 5,"se\hsean22_tentacle3.ogg"
if %hseanwave=23 dwaveloop 5,"se\hsean23_wash.ogg"
if %hseanwave=24 dwaveloop 5,"se\hsean24_machine1.ogg"
if %hseanwave=25 dwaveloop 5,"se\hsean25_machine2.ogg"
if %hseanwave=26 dwaveloop 5,"se\hsean26_machine3.ogg"
if %hseanwave=27 dwaveloop 5,"se\hsean27_vacum.ogg"
return



*hseanvoice

if %con_hvoice=1 return
saveoff
if %hseanvoice= 0 dwavestop 13
if %hseanvoice= 1 dwaveloop 13,"SE\fera_zyuru1.ogg"
if %hseanvoice= 2 dwaveloop 13,"SE\fera_zyuru2.ogg"
if %hseanvoice= 3 dwaveloop 13,"SE\fera_zyubu1.ogg"
if %hseanvoice= 4 dwaveloop 13,"SE\fera_zyubu2.ogg"
if %hseanvoice= 5 dwaveloop 13,"SE\fera_gutyu.ogg"
return



*hseanbgm

saveoff
mov %hbgmnow,1
if %hseanbgm= 1 bgm"bgm\ero1.ogg"
if %hseanbgm= 2 bgm"bgm\ero2.ogg"
if %hseanbgm= 3 bgm"bgm\ero3.ogg"
return



*hseanbgm_config

if %hbgmnow=0 return
if %hseanbgm= 1 bgm"bgm\ero1.ogg"
if %hseanbgm= 2 bgm"bgm\ero2.ogg"
if %hseanbgm= 3 bgm"bgm\ero3.ogg"
return



*vanish_sprite

for %sub1=3 to 611 step 1
vsp %sub1,0
next
return



*appear_sprite

for %sub1=3 to 611 step 1
vsp %sub1,1
next
return



*clear_sprite

for %sub1=3 to 611 step 1
csp %sub1
next
return



*syasei1

gosub *vanish_sprite
textoff
lsp 2,":c;system\ef_white.jpg",0,0:print 10,300
return



*syasei2

dwave 1,"se\syasei.ogg"
vsp 2,0:print 10,400
vsp 2,1:print 10,300
vsp 2,0:print 10,300
vsp 2,1:print 10,100
csp 2:print 10,1000
texton
gosub *appear_sprite
print 1
return



*anten

cspl 3,7
gosub *clear_sprite
monocro #000000
print 10,3000
csp -1
monocro off
bg black,1
gosub *setwindow_01p
return



*story_end

bgmstop
cspl 1,800
bg black,10,2000
wait 1000
textoff
textclear
goto *menu_main

