
*menu_short

csp -1
bg black,1
saveoff
if %short_page=0 mov %short_page,1
screen_clear
bgm"bgm\zukan.ogg"

*menu_short2

shadedistance 1,2
lsp 502,":a;system\system_bg.jpg",0,0			;背景表示
lsp 501,":a;system\window10.bmp",25,50			;背景表示
lsp 141,":c;system\m_title_monster.jpg",20,20
lsp 142,":c;system\system_barx_u.jpg",0,0			;上ライン表示
lsp 143,":c;system\system_barx_d.jpg",0,560			;下ライン表示

*menu_short3

mov %zukan_hyouzyo,1
mov %zukan_pozu,1
mov %kaisetu_page,1
if %short_page=0 mov %short_page,25
if %short_page=26 mov %short_page,1
itoa2 $short_h,%short_page
if %short_page<10 lsp 144,":s/20,20,0;#FFFFFF"+$short_h+"／２５",370,500
if %short_page>9 lsp 144,":s/20,20,0;#FFFFFF"+$short_h+"／２５",350,500
if %short_page=1 goto *menu_short_page1
if %short_page=2 goto *menu_short_page2
if %short_page=3 goto *menu_short_page3
if %short_page=4 goto *menu_short_page4
if %short_page=5 goto *menu_short_page5
if %short_page=6 goto *menu_short_page6
if %short_page=7 goto *menu_short_page7
if %short_page=8 goto *menu_short_page8
if %short_page=9 goto *menu_short_page9
if %short_page=10 goto *menu_short_page10
if %short_page=11 goto *menu_short_page11
if %short_page=12 goto *menu_short_page12
if %short_page=13 goto *menu_short_page13
if %short_page=14 goto *menu_short_page14
if %short_page=15 goto *menu_short_page15
if %short_page=16 goto *menu_short_page16
if %short_page=17 goto *menu_short_page17
if %short_page=18 goto *menu_short_page18
if %short_page=19 goto *menu_short_page19
if %short_page=20 goto *menu_short_page20
if %short_page=21 goto *menu_short_page21
if %short_page=22 goto *menu_short_page22
if %short_page=23 goto *menu_short_page23
if %short_page=24 goto *menu_short_page24
if %short_page=25 goto *menu_short_page25
print 1



*start_short

mov %hsean,1
cspl 1,800:print 10,500
bg black,1
wait 1000
textoff
textclear
gosub *setwindow_01p
return



*menu_short_page1

btndef clear
lsp 111,":c/2,0,3;system\return.bmp",20,560:spbtn 111,111		;「戻る」ボタン表示
lsp 112,":c/2,0,3;system\menu_prev.jpg",310,500:spbtn 112,112
lsp 113,":c/2,0,3;system\menu_next.jpg",470,500:spbtn 113,113

lsp 201,":s/20,20,0;#FF4444人間型女性器でのセックス（愛情・生殖）",50,80
lsp 202,":s/20,20,0;#FFFFFF#FF4444【ラスト・エスケープ】：沙亜羅との交接",50,110:spbtn 202,202
lsp 203,":s/20,20,0;#FFFFFF#FF4444",50,140:spbtn 203,203
lsp 204,":s/20,20,0;#FF4444人間型女性器でのセックス（嫐り・エサとしての搾精）",50,170
lsp 205,":s/20,20,0;#FFFFFF#FF4444【女給仕エミリア第１話】：膣で搾精",50,200:spbtn 205,205
lsp 206,":s/20,20,0;#FFFFFF#FF4444【女給仕エミリア第１話】：膣で搾精ＥＮＤ",50,230:spbtn 206,206
lsp 207,":s/20,20,0;#FFFFFF#FF4444",50,260:spbtn 207,207
lsp 208,":s/20,20,0;#FF4444人間型女性器でのセックス（他者強制）",50,290
lsp 209,":s/20,20,0;#FFFFFF#FF4444【クリオネ娘】：強制性交",50,320:spbtn 209,209
lsp 210,":s/20,20,0;#FFFFFF#FF4444",50,350:spbtn 210,210
lsp 211,":s/20,20,0;#FFFFFF#FF4444",50,380:spbtn 211,211
lsp 212,":s/20,20,0;#FFFFFF#FF4444",50,410:spbtn 212,212
lsp 213,":s/20,20,0;#FFFFFF#FF4444",50,440:spbtn 213,213

btnwait %bwait

if %bwait=112 mov %short_page,%short_page-1:cspl 301,303:goto *menu_short3
if %bwait=113 mov %short_page,%short_page+1:cspl 301,303:goto *menu_short3
if %bwait=202 gosub *start_short:hseanbgm:goto *chap_018j_22
if %bwait=205 gosub *start_short:hseanbgm:goto *chap_017_7
if %bwait=206 gosub *start_short:hseanbgm:goto *chap_017d_1
if %bwait=209 gosub *start_short:hseanbgm:goto *chap_029_1
if %bwait=111 screen_clear: goto *title				;「戻る」ボタン表示
if %bwait= -1 screen_clear: goto *title				;右クリック
if %bwait=-10 screen_clear: goto *title				;ESCキー
if %bwait=-11 screen_clear: goto *title				;スペースキー

goto *menu_short_page1



*menu_short_page2

btndef clear
lsp 111,":c/2,0,3;system\return.bmp",20,560:spbtn 111,111		;「戻る」ボタン表示
lsp 112,":c/2,0,3;system\menu_prev.jpg",310,500:spbtn 112,112
lsp 113,":c/2,0,3;system\menu_next.jpg",470,500:spbtn 113,113

lsp 201,":s/20,20,0;#FF4444異形の搾精器官を用いた交尾（愛情・生殖）",50,80
lsp 202,":s/20,20,0;#FFFFFF#FF4444【クリオネ娘】：生殖交尾",50,110:spbtn 202,202
lsp 203,":s/20,20,0;#FFFFFF#FF4444【スキュラ・レポート】：愛のある膣搾精",50,140:spbtn 203,203
lsp 204,":s/20,20,0;#FFFFFF#FF4444【スキュラ・レポート】：膣＋触手",50,170:spbtn 204,204
lsp 205,":s/20,20,0;#FFFFFF#FF4444【ラスト・エスケープ】：ブラックウィドウ娘（遭遇〜生殖孔搾精）",50,200:spbtn 205,205
lsp 206,":s/20,20,0;#FFFFFF#FF4444【ラスト・エスケープ】：ブラックウィドウ娘（屈服〜永遠交尾）",50,230:spbtn 206,206
lsp 207,":s/20,20,0;#FFFFFF#FF4444【ラスト・エスケープ】：アレクサンドラ（搾精の女王に屈服・恍惚搾精）",50,260:spbtn 207,207
lsp 208,":s/20,20,0;#FFFFFF#FF4444【ラスト・エスケープ】：アレクサンドラ（搾精の女王に抵抗・強制搾精）",50,290:spbtn 208,208
lsp 209,":s/20,20,0;#FFFFFF#FF4444【ラスト・エスケープ】：クリーチャー沙亜羅（ブラックウィドウ娘・交尾）",50,320:spbtn 209,209
lsp 210,":s/20,20,0;#FFFFFF#FF4444【ラスト・エスケープ】：クリーチャー沙亜羅（搾精の女王）",50,350:spbtn 210,210
lsp 211,":s/20,20,0;#FFFFFF#FF4444【ナマコ娘　表】：生殖孔による搾精（１回目）",50,380:spbtn 211,211
lsp 212,":s/20,20,0;#FFFFFF#FF4444【ナマコ娘　表】：生殖孔による搾精（２回目〜３回目）",50,410:spbtn 212,212
lsp 213,":s/20,20,0;#FFFFFF#FF4444【ナマコ娘　表】：生殖孔による搾精（エンドレス）",50,440:spbtn 213,213

btnwait %bwait

if %bwait=112 mov %short_page,%short_page-1:cspl 301,303:goto *menu_short3
if %bwait=113 mov %short_page,%short_page+1:cspl 301,303:goto *menu_short3
if %bwait=202 gosub *start_short:hseanbgm:goto *chap_029c_1
if %bwait=203 gosub *start_short:hseanbgm:goto *chap_012b_4
if %bwait=204 gosub *start_short:hseanbgm:goto *chap_012b_5
if %bwait=205 gosub *start_short:hseanbgm:goto *chap_018b_5
if %bwait=206 gosub *start_short:hseanbgm:goto *chap_018e_1
if %bwait=207 gosub *start_short:hseanbgm:goto *chap_018j_1
if %bwait=208 gosub *start_short:hseanbgm:goto *chap_018b4_21
if %bwait=209 gosub *start_short:hseanbgm:goto *chap_018j_23b
if %bwait=210 gosub *start_short:hseanbgm:goto *chap_018j_24
if %bwait=211 gosub *start_short:hseanbgm:goto *chap_003_1
if %bwait=212 gosub *start_short:hseanbgm:goto *chap_003_2
if %bwait=213 gosub *start_short:hseanbgm:goto *chap_003_3
if %bwait=111 screen_clear: goto *title				;「戻る」ボタン表示
if %bwait= -1 screen_clear: goto *title				;右クリック
if %bwait=-10 screen_clear: goto *title				;ESCキー
if %bwait=-11 screen_clear: goto *title				;スペースキー

goto *menu_short_page2



*menu_short_page3

btndef clear
lsp 111,":c/2,0,3;system\return.bmp",20,560:spbtn 111,111		;「戻る」ボタン表示
lsp 112,":c/2,0,3;system\menu_prev.jpg",310,500:spbtn 112,112
lsp 113,":c/2,0,3;system\menu_next.jpg",470,500:spbtn 113,113

lsp 201,":s/20,20,0;#FF4444異形の搾精器官を用いた交尾（愛情・生殖）",50,80
lsp 202,":s/20,20,0;#FFFFFF#FF4444【ナマコ娘　裏】：生殖孔による搾精・悪ナマコ（１回目）",50,110:spbtn 202,202
lsp 203,":s/20,20,0;#FFFFFF#FF4444【ナマコ娘　裏】：生殖孔による搾精・悪ナマコ（２回目〜３回目）",50,140:spbtn 203,203
lsp 204,":s/20,20,0;#FFFFFF#FF4444【ナマコ娘　裏】：生殖孔による搾精・悪ナマコ（最後の搾精）",50,170:spbtn 204,204
lsp 205,":s/20,20,0;#FFFFFF#FF4444【ナメクジ娘】：生殖（１回目）",50,200:spbtn 205,205
lsp 206,":s/20,20,0;#FFFFFF#FF4444【ナメクジ娘】：生殖（２回目〜）",50,230:spbtn 206,206
lsp 207,":s/20,20,0;#FFFFFF#FF4444【ナメクジ娘】：宴（緑髪）",50,260:spbtn 207,207
lsp 208,":s/20,20,0;#FFFFFF#FF4444【ナメクジ娘】：宴（ジーナ）",50,290:spbtn 208,208
lsp 209,":s/20,20,0;#FFFFFF#FF4444【ヒトデ娘】：恋人のセックス",50,320:spbtn 209,209
lsp 210,":s/20,20,0;#FFFFFF#FF4444【ミミズ娘】：搾精体腔による搾精（連続）",50,350:spbtn 210,210
lsp 211,":s/20,20,0;#FFFFFF#FF4444【ラフレシア娘】：搾精〜受精",50,380:spbtn 211,211
lsp 212,":s/20,20,0;#FFFFFF#FF4444",50,410:spbtn 212,212
lsp 213,":s/20,20,0;#FFFFFF#FF4444",50,440:spbtn 213,213

btnwait %bwait

if %bwait=112 mov %short_page,%short_page-1:cspl 301,303:goto *menu_short3
if %bwait=113 mov %short_page,%short_page+1:cspl 301,303:goto *menu_short3
if %bwait=202 gosub *start_short:hseanbgm:goto *chap_003b_1
if %bwait=203 gosub *start_short:hseanbgm:goto *chap_003b_2
if %bwait=204 gosub *start_short:hseanbgm:goto *chap_003b_3
if %bwait=205 gosub *start_short:hseanbgm:goto *chap_025_2
if %bwait=206 gosub *start_short:hseanbgm:goto *chap_025_3
if %bwait=207 gosub *start_short:hseanbgm:goto *chap_025_4
if %bwait=208 gosub *start_short:hseanbgm:goto *chap_025_5
if %bwait=209 gosub *start_short:hseanbgm:goto *chap_004c_2
if %bwait=210 gosub *start_short:hseanbgm:goto *chap_006b_2
if %bwait=211 gosub *start_short:hseanbgm:goto *chap_014_1
if %bwait=111 screen_clear: goto *title				;「戻る」ボタン表示
if %bwait= -1 screen_clear: goto *title				;右クリック
if %bwait=-10 screen_clear: goto *title				;ESCキー
if %bwait=-11 screen_clear: goto *title				;スペースキー

goto *menu_short_page3



*menu_short_page4

btndef clear
lsp 111,":c/2,0,3;system\return.bmp",20,560:spbtn 111,111		;「戻る」ボタン表示
lsp 112,":c/2,0,3;system\menu_prev.jpg",310,500:spbtn 112,112
lsp 113,":c/2,0,3;system\menu_next.jpg",470,500:spbtn 113,113

lsp 201,":s/20,20,0;#FF4444異形の搾精器官を用いた搾精（嫐り・エサとしての搾精）",50,80
lsp 202,":s/20,20,0;#FFFFFF#FF4444【イソギンチャク娘】：口盤での搾精（１回目）",50,110:spbtn 202,202
lsp 203,":s/20,20,0;#FFFFFF#FF4444【イソギンチャク娘】：口盤での搾精（２回目以降）",50,140:spbtn 203,203
lsp 204,":s/20,20,0;#FFFFFF#FF4444【クモ娘】：出糸突起での搾精",50,170:spbtn 204,204
lsp 205,":s/20,20,0;#FFFFFF#FF4444【クモ娘】：出糸突起での搾精・撹拌",50,200:spbtn 205,205
lsp 206,":s/20,20,0;#FFFFFF#FF4444【スキュラ・レポート】：愛のない膣搾精",50,230:spbtn 206,206
lsp 207,":s/20,20,0;#FFFFFF#FF4444【スキュラ・レポート】：膣＋触手",50,260:spbtn 207,207
lsp 208,":s/20,20,0;#FFFFFF#FF4444【ヒトデ娘】：搾精腔での搾精（１回目）",50,290:spbtn 208,208
lsp 209,":s/20,20,0;#FFFFFF#FF4444【ヒトデ娘】：搾精腔での搾精（２回目〜３回目）",50,320:spbtn 209,209
lsp 210,":s/20,20,0;#FFFFFF#FF4444【ヒトデ娘】：搾精腔での搾精（連続）",50,350:spbtn 210,210
lsp 211,":s/20,20,0;#FFFFFF#FF4444【ヒドラ娘】：腔腸口吸精（１回目）",50,380:spbtn 211,211
lsp 212,":s/20,20,0;#FFFFFF#FF4444【ヒドラ娘】：腔腸口吸精（２回目）",50,410:spbtn 212,212
lsp 213,":s/20,20,0;#FFFFFF#FF4444【便器娘・小】：精液吸引（１回目）",50,440:spbtn 213,213

btnwait %bwait

if %bwait=112 mov %short_page,%short_page-1:cspl 301,303:goto *menu_short3
if %bwait=113 mov %short_page,%short_page+1:cspl 301,303:goto *menu_short3
if %bwait=202 gosub *start_short:hseanbgm:goto *chap_001c_2
if %bwait=203 gosub *start_short:hseanbgm:goto *chap_001c_3
if %bwait=204 gosub *start_short:hseanbgm:goto *chap_005_3
if %bwait=205 gosub *start_short:hseanbgm:goto *chap_005_4
if %bwait=206 gosub *start_short:hseanbgm:goto *chap_012_4
if %bwait=207 gosub *start_short:hseanbgm:goto *chap_012_5
if %bwait=208 gosub *start_short:hseanbgm:goto *chap_004_3
if %bwait=209 gosub *start_short:hseanbgm:goto *chap_004_4
if %bwait=210 gosub *start_short:hseanbgm:goto *chap_004_5
if %bwait=211 gosub *start_short:hseanbgm:goto *chap_024_2
if %bwait=212 gosub *start_short:hseanbgm:goto *chap_024_3
if %bwait=213 gosub *start_short:hseanbgm:goto *chap_030_1
if %bwait=111 screen_clear: goto *title				;「戻る」ボタン表示
if %bwait= -1 screen_clear: goto *title				;右クリック
if %bwait=-10 screen_clear: goto *title				;ESCキー
if %bwait=-11 screen_clear: goto *title				;スペースキー

goto *menu_short_page4



*menu_short_page5

btndef clear
lsp 111,":c/2,0,3;system\return.bmp",20,560:spbtn 111,111		;「戻る」ボタン表示
lsp 112,":c/2,0,3;system\menu_prev.jpg",310,500:spbtn 112,112
lsp 113,":c/2,0,3;system\menu_next.jpg",470,500:spbtn 113,113

lsp 201,":s/20,20,0;#FF4444異形の搾精器官を用いた搾精（嫐り・エサとしての搾精）",50,80
lsp 202,":s/20,20,0;#FFFFFF#FF4444【便器娘・小】：精液吸引（２回目）",50,110:spbtn 202,202
lsp 203,":s/20,20,0;#FFFFFF#FF4444【便器娘・小】：精液吸引（３回目）",50,140:spbtn 203,203
lsp 204,":s/20,20,0;#FFFFFF#FF4444【便器娘・小】：病み付き……",50,170:spbtn 204,204
lsp 205,":s/20,20,0;#FFFFFF#FF4444【ミミズ娘】：搾精体腔による搾精（１回目）",50,200:spbtn 205,205
lsp 206,":s/20,20,0;#FFFFFF#FF4444【ミミズ娘】：搾精体腔による搾精（２回目）",50,230:spbtn 206,206
lsp 207,":s/20,20,0;#FFFFFF#FF4444【ラミア】：魔膣の抱擁（１回目）",50,260:spbtn 207,207
lsp 208,":s/20,20,0;#FFFFFF#FF4444【ラミア】：魔膣の抱擁（２回目）",50,290:spbtn 208,208
lsp 209,":s/20,20,0;#FFFFFF#FF4444",50,320:spbtn 209,209
lsp 210,":s/20,20,0;#FFFFFF#FF4444",50,350:spbtn 210,210
lsp 211,":s/20,20,0;#FFFFFF#FF4444",50,380:spbtn 211,211
lsp 212,":s/20,20,0;#FFFFFF#FF4444",50,410:spbtn 212,212
lsp 213,":s/20,20,0;#FFFFFF#FF4444",50,440:spbtn 213,213

btnwait %bwait

if %bwait=112 mov %short_page,%short_page-1:cspl 301,303:goto *menu_short3
if %bwait=113 mov %short_page,%short_page+1:cspl 301,303:goto *menu_short3
if %bwait=202 gosub *start_short:hseanbgm:goto *chap_030_2
if %bwait=203 gosub *start_short:hseanbgm:goto *chap_030_3
if %bwait=204 gosub *start_short:hseanbgm:goto *chap_030_4
if %bwait=205 gosub *start_short:hseanbgm:goto *chap_006_2
if %bwait=206 gosub *start_short:hseanbgm:goto *chap_006b_1
if %bwait=207 gosub *start_short:hseanbgm:goto *chap_009a_5
if %bwait=208 gosub *start_short:hseanbgm:goto *chap_009a_6
if %bwait=111 screen_clear: goto *title				;「戻る」ボタン表示
if %bwait= -1 screen_clear: goto *title				;右クリック
if %bwait=-10 screen_clear: goto *title				;ESCキー
if %bwait=-11 screen_clear: goto *title				;スペースキー

goto *menu_short_page5



*menu_short_page6

btndef clear
lsp 111,":c/2,0,3;system\return.bmp",20,560:spbtn 111,111		;「戻る」ボタン表示
lsp 112,":c/2,0,3;system\menu_prev.jpg",310,500:spbtn 112,112
lsp 113,":c/2,0,3;system\menu_next.jpg",470,500:spbtn 113,113

lsp 201,":s/20,20,0;#FF4444通常フェラ・舐め責め",50,80
lsp 202,":s/20,20,0;#FFFFFF#FF4444【アルラウネ】：舌での遊戯",50,110:spbtn 202,202
lsp 203,":s/20,20,0;#FFFFFF#FF4444【ラスト・エスケープ】：アレクサンドラ（抱え込みフェラ）",50,140:spbtn 203,203
lsp 204,":s/20,20,0;#FFFFFF#FF4444【女給仕エミリア第２話】：睡眠・口",50,170:spbtn 204,204
lsp 205,":s/20,20,0;#FFFFFF#FF4444【女給仕エミリア第２話】：覚醒・口",50,200:spbtn 205,205
lsp 206,":s/20,20,0;#FFFFFF#FF4444",50,230:spbtn 206,206
lsp 207,":s/20,20,0;#FF4444異形の口・長い舌による責め",50,260
lsp 208,":s/20,20,0;#FFFFFF#FF4444【あかなめ】：全身舐め",50,290:spbtn 208,208
lsp 209,":s/20,20,0;#FFFFFF#FF4444【あかなめ】：全身舐め",50,320:spbtn 209,209
lsp 210,":s/20,20,0;#FFFFFF#FF4444【あかなめ】：股間責め（皮）",50,350:spbtn 210,210
lsp 211,":s/20,20,0;#FFFFFF#FF4444【あかなめ】：股間責め（尿道口）",50,380:spbtn 211,211
lsp 212,":s/20,20,0;#FFFFFF#FF4444【あかなめ】：股間責め（全体）",50,410:spbtn 212,212
lsp 213,":s/20,20,0;#FFFFFF#FF4444【ラスト・エスケープ】：リッカー娘（遭遇〜舌嫐り）",50,440:spbtn 213,213

btnwait %bwait

if %bwait=112 mov %short_page,%short_page-1:cspl 301,303:goto *menu_short3
if %bwait=113 mov %short_page,%short_page+1:cspl 301,303:goto *menu_short3
if %bwait=202 gosub *start_short:hseanbgm:goto *chap_016_2
if %bwait=203 gosub *start_short:hseanbgm:goto *chap_018b4_19e
if %bwait=204 gosub *start_short:hseanbgm:goto *chap_055_2
if %bwait=205 gosub *start_short:hseanbgm:goto *chap_055_3
if %bwait=208 gosub *start_short:hseanbgm:goto *chap_027_1
if %bwait=209 gosub *start_short:hseanbgm:goto *chap_027_1
if %bwait=210 gosub *start_short:hseanbgm:goto *chap_027_2
if %bwait=211 gosub *start_short:hseanbgm:goto *chap_027_3
if %bwait=212 gosub *start_short:hseanbgm:goto *chap_027_4
if %bwait=213 gosub *start_short:hseanbgm:goto *chap_018b_3
if %bwait=111 screen_clear: goto *title				;「戻る」ボタン表示
if %bwait= -1 screen_clear: goto *title				;右クリック
if %bwait=-10 screen_clear: goto *title				;ESCキー
if %bwait=-11 screen_clear: goto *title				;スペースキー

goto *menu_short_page6



*menu_short_page7

btndef clear
lsp 111,":c/2,0,3;system\return.bmp",20,560:spbtn 111,111		;「戻る」ボタン表示
lsp 112,":c/2,0,3;system\menu_prev.jpg",310,500:spbtn 112,112
lsp 113,":c/2,0,3;system\menu_next.jpg",470,500:spbtn 113,113

lsp 201,":s/20,20,0;#FF4444異形の口・長い舌による責め",50,80
lsp 202,":s/20,20,0;#FFFFFF#FF4444【ラスト・エスケープ】：リッカー娘（屈服〜舌搾精）",50,110:spbtn 202,202
lsp 203,":s/20,20,0;#FFFFFF#FF4444【ラスト・エスケープ】：ハンター娘（遭遇〜口内嫐り）",50,140:spbtn 203,203
lsp 204,":s/20,20,0;#FFFFFF#FF4444【ラスト・エスケープ】：クリーチャー沙亜羅（リッカー娘・舌責め）",50,170:spbtn 204,204
lsp 205,":s/20,20,0;#FFFFFF#FF4444【ラスト・エスケープ】：クリーチャー沙亜羅（ハンター娘・口内嫐り）",50,200:spbtn 205,205
lsp 206,":s/20,20,0;#FFFFFF#FF4444【二口女】：口淫",50,230:spbtn 206,206
lsp 207,":s/20,20,0;#FFFFFF#FF4444【二口女】：唇責め",50,260:spbtn 207,207
lsp 208,":s/20,20,0;#FFFFFF#FF4444【二口女】：さらに口淫",50,290:spbtn 208,208
lsp 209,":s/20,20,0;#FFFFFF#FF4444【二口女】：純愛口淫",50,320:spbtn 209,209
lsp 210,":s/20,20,0;#FFFFFF#FF4444【二口女】：口淫連続射精",50,350:spbtn 210,210
lsp 211,":s/20,20,0;#FFFFFF#FF4444【二口女】：男女の営み？",50,380:spbtn 211,211
lsp 212,":s/20,20,0;#FFFFFF#FF4444【ラミア】：舌での抱擁（１回目）",50,410:spbtn 212,212
lsp 213,":s/20,20,0;#FFFFFF#FF4444【ラミア】：舌での抱擁（２回目）",50,440:spbtn 213,213

btnwait %bwait

if %bwait=112 mov %short_page,%short_page-1:cspl 301,303:goto *menu_short3
if %bwait=113 mov %short_page,%short_page+1:cspl 301,303:goto *menu_short3
if %bwait=202 gosub *start_short:hseanbgm:goto *chap_018d_1
if %bwait=203 gosub *start_short:hseanbgm:goto *chap_018b2_8
if %bwait=204 gosub *start_short:hseanbgm:goto *chap_018j_23
if %bwait=205 gosub *start_short:hseanbgm:goto *chap_018j_23c
if %bwait=206 gosub *start_short:hseanbgm:goto *chap_019_3
if %bwait=207 gosub *start_short:hseanbgm:goto *chap_019_4
if %bwait=208 gosub *start_short:hseanbgm:goto *chap_019_5
if %bwait=209 gosub *start_short:hseanbgm:goto *chap_019b_7
if %bwait=210 gosub *start_short:hseanbgm:goto *chap_019b_8
if %bwait=211 gosub *start_short:hseanbgm:goto *chap_019b_9
if %bwait=212 gosub *start_short:hseanbgm:goto *chap_009a_3
if %bwait=213 gosub *start_short:hseanbgm:goto *chap_009a_4
if %bwait=111 screen_clear: goto *title				;「戻る」ボタン表示
if %bwait= -1 screen_clear: goto *title				;右クリック
if %bwait=-10 screen_clear: goto *title				;ESCキー
if %bwait=-11 screen_clear: goto *title				;スペースキー

goto *menu_short_page7



*menu_short_page8

btndef clear
lsp 111,":c/2,0,3;system\return.bmp",20,560:spbtn 111,111		;「戻る」ボタン表示
lsp 112,":c/2,0,3;system\menu_prev.jpg",310,500:spbtn 112,112
lsp 113,":c/2,0,3;system\menu_next.jpg",470,500:spbtn 113,113

lsp 201,":s/20,20,0;#FF4444手コキ",50,80
lsp 202,":s/20,20,0;#FFFFFF#FF4444【ラスト・エスケープ】：沙亜羅の手で（幕間）",50,110:spbtn 202,202
lsp 203,":s/20,20,0;#FFFFFF#FF4444【ラスト・エスケープ】：沙亜羅の手で（ラスト・エスケープ）",50,140:spbtn 203,203
lsp 204,":s/20,20,0;#FFFFFF#FF4444【女給仕エミリア第１話】：お風呂での洗い責め",50,170:spbtn 204,204
lsp 205,":s/20,20,0;#FFFFFF#FF4444【女給仕エミリア第１話】：洗い責めＥＮＤ",50,200:spbtn 205,205
lsp 206,":s/20,20,0;#FFFFFF#FF4444【女給仕エミリア第１話】：お風呂でのご褒美奉仕",50,230:spbtn 206,206
lsp 207,":s/20,20,0;#FFFFFF#FF4444【ドレス・アナスタシア】：背後から、グローブで……",50,260:spbtn 207,207
lsp 208,":s/20,20,0;#FFFFFF#FF4444",50,290:spbtn 208,208
lsp 209,":s/20,20,0;#FF4444足コキ",50,320
lsp 210,":s/20,20,0;#FFFFFF#FF4444【ラスト・エスケープ】：アレクサンドラ（足での搾精）",50,350:spbtn 210,210
lsp 211,":s/20,20,0;#FFFFFF#FF4444",50,380:spbtn 211,211
lsp 212,":s/20,20,0;#FFFFFF#FF4444",50,410:spbtn 212,212
lsp 213,":s/20,20,0;#FFFFFF#FF4444",50,440:spbtn 213,213

btnwait %bwait

if %bwait=112 mov %short_page,%short_page-1:cspl 301,303:goto *menu_short3
if %bwait=113 mov %short_page,%short_page+1:cspl 301,303:goto *menu_short3
if %bwait=202 gosub *start_short:goto *chap_018b2_12
if %bwait=203 gosub *start_short:hseanbgm:goto *chap_018b4_26
if %bwait=204 gosub *start_short:hseanbgm:goto *chap_017_4
if %bwait=205 gosub *start_short:hseanbgm:goto *chap_017c_1
if %bwait=206 gosub *start_short:hseanbgm:goto *chap_017_6
if %bwait=207 gosub *start_short:hseanbgm:goto *chap_015_1
if %bwait=210 gosub *start_short:hseanbgm:goto *chap_018b4_19b
if %bwait=111 screen_clear: goto *title				;「戻る」ボタン表示
if %bwait= -1 screen_clear: goto *title				;右クリック
if %bwait=-10 screen_clear: goto *title				;ESCキー
if %bwait=-11 screen_clear: goto *title				;スペースキー

goto *menu_short_page8



*menu_short_page9

btndef clear
lsp 111,":c/2,0,3;system\return.bmp",20,560:spbtn 111,111		;「戻る」ボタン表示
lsp 112,":c/2,0,3;system\menu_prev.jpg",310,500:spbtn 112,112
lsp 113,":c/2,0,3;system\menu_next.jpg",470,500:spbtn 113,113

lsp 201,":s/20,20,0;#FF4444パイズリ・胸責め",50,80
lsp 202,":s/20,20,0;#FFFFFF#FF4444【ラスト・エスケープ】：ノビスタドール娘（遭遇〜パイズリ）",50,110:spbtn 202,202
lsp 203,":s/20,20,0;#FFFFFF#FF4444【ラスト・エスケープ】：ノビスタドール娘（屈服〜ニプル〜生殖）",50,140:spbtn 203,203
lsp 204,":s/20,20,0;#FFFFFF#FF4444【ラスト・エスケープ】：クリーチャー沙亜羅（ノビスタドール娘・パイズリ）",50,170:spbtn 204,204
lsp 205,":s/20,20,0;#FFFFFF#FF4444【ラスト・エスケープ】：クリーチャー沙亜羅（ノビスタドール娘・ニプル）",50,200:spbtn 205,205
lsp 206,":s/20,20,0;#FFFFFF#FF4444【女給仕エミリア第２話】：睡眠・胸",50,230:spbtn 206,206
lsp 207,":s/20,20,0;#FFFFFF#FF4444",50,260:spbtn 207,207
lsp 208,":s/20,20,0;#FF4444尻コキ・アナル",50,290
lsp 209,":s/20,20,0;#FFFFFF#FF4444【ミミズ娘】：肛門搾精（１回目）",50,320:spbtn 209,209
lsp 210,":s/20,20,0;#FFFFFF#FF4444【ミミズ娘】：肛門搾精（２回目）",50,350:spbtn 210,210
lsp 211,":s/20,20,0;#FFFFFF#FF4444",50,380:spbtn 211,211
lsp 212,":s/20,20,0;#FF4444素股・太股",50,410
lsp 213,":s/20,20,0;#FFFFFF#FF4444【アルラウネ】：太腿に挟まれて",50,440:spbtn 213,213

btnwait %bwait

if %bwait=112 mov %short_page,%short_page-1:cspl 301,303:goto *menu_short3
if %bwait=113 mov %short_page,%short_page+1:cspl 301,303:goto *menu_short3
if %bwait=202 gosub *start_short:hseanbgm:goto *chap_018b3_14
if %bwait=203 gosub *start_short:hseanbgm:goto *chap_018h_1
if %bwait=204 gosub *start_short:hseanbgm:goto *chap_018j_23e
if %bwait=205 gosub *start_short:hseanbgm:goto *chap_018j_23f
if %bwait=206 gosub *start_short:hseanbgm:goto *chap_055_1
if %bwait=209 gosub *start_short:hseanbgm:goto *chap_006c_1
if %bwait=210 gosub *start_short:hseanbgm:goto *chap_006c_2
if %bwait=213 gosub *start_short:hseanbgm:goto *chap_016_3
if %bwait=111 screen_clear: goto *title				;「戻る」ボタン表示
if %bwait= -1 screen_clear: goto *title				;右クリック
if %bwait=-10 screen_clear: goto *title				;ESCキー
if %bwait=-11 screen_clear: goto *title				;スペースキー

goto *menu_short_page9



*menu_short_page10

btndef clear
lsp 111,":c/2,0,3;system\return.bmp",20,560:spbtn 111,111		;「戻る」ボタン表示
lsp 112,":c/2,0,3;system\menu_prev.jpg",310,500:spbtn 112,112
lsp 113,":c/2,0,3;system\menu_next.jpg",470,500:spbtn 113,113

lsp 201,":s/20,20,0;#FF4444おへそ",50,80
lsp 202,":s/20,20,0;#FFFFFF#FF4444【アルラウネ】：おへそで搾精（１回目）",50,110:spbtn 202,202
lsp 203,":s/20,20,0;#FFFFFF#FF4444【アルラウネ】：おへそで貪欲に搾精",50,140:spbtn 203,203
lsp 204,":s/20,20,0;#FFFFFF#FF4444【ラスト・エスケープ】：クリーチャー沙亜羅（ヒル娘・へそ搾精）",50,170:spbtn 204,204
lsp 205,":s/20,20,0;#FFFFFF#FF4444【ラフレシア娘】：おへそで御褒美",50,200:spbtn 205,205
lsp 206,":s/20,20,0;#FFFFFF#FF4444【ラフレシア娘】：もっとおへそで御褒美",50,230:spbtn 206,206
lsp 207,":s/20,20,0;#FFFFFF#FF4444",50,260:spbtn 207,207
lsp 208,":s/20,20,0;#FF4444尻尾",50,290
lsp 209,":s/20,20,0;#FFFFFF#FF4444【ラミア】：尻尾でのペニスいじり",50,320:spbtn 209,209
lsp 210,":s/20,20,0;#FFFFFF#FF4444【女給仕エミリア第２話】：お仕置き・尻尾",50,350:spbtn 210,210
lsp 211,":s/20,20,0;#FFFFFF#FF4444【女給仕エミリア第２話】：尻尾・最期の吸引",50,380:spbtn 211,211
lsp 212,":s/20,20,0;#FFFFFF#FF4444【誘拐魔ヒルフェレス　自動販売機】：OL直搾り",50,410:spbtn 212,212
lsp 213,":s/20,20,0;#FFFFFF#FF4444【誘拐魔ヒルフェレス　自動販売機】：少女直搾り",50,440:spbtn 213,213

btnwait %bwait

if %bwait=112 mov %short_page,%short_page-1:cspl 301,303:goto *menu_short3
if %bwait=113 mov %short_page,%short_page+1:cspl 301,303:goto *menu_short3
if %bwait=202 gosub *start_short:hseanbgm:goto *chap_016_4
if %bwait=203 gosub *start_short:hseanbgm:goto *chap_016_5
if %bwait=204 gosub *start_short:hseanbgm:goto *chap_018j_23d
if %bwait=205 gosub *start_short:hseanbgm:goto *chap_014b_4
if %bwait=206 gosub *start_short:hseanbgm:goto *chap_014b_5
if %bwait=209 gosub *start_short:hseanbgm:goto *chap_009a_2
if %bwait=210 gosub *start_short:hseanbgm:goto *chap_055_4
if %bwait=211 gosub *start_short:hseanbgm:goto *chap_055b_1
if %bwait=212 gosub *start_short:hseanbgm:goto *chap_022_4
if %bwait=213 gosub *start_short:hseanbgm:goto *chap_022_5
if %bwait=111 screen_clear: goto *title				;「戻る」ボタン表示
if %bwait= -1 screen_clear: goto *title				;右クリック
if %bwait=-10 screen_clear: goto *title				;ESCキー
if %bwait=-11 screen_clear: goto *title				;スペースキー

goto *menu_short_page10



*menu_short_page11

btndef clear
lsp 111,":c/2,0,3;system\return.bmp",20,560:spbtn 111,111		;「戻る」ボタン表示
lsp 112,":c/2,0,3;system\menu_prev.jpg",310,500:spbtn 112,112
lsp 113,":c/2,0,3;system\menu_next.jpg",470,500:spbtn 113,113

lsp 201,":s/20,20,0;#FF4444触手・ツタ（絡み）",50,80
lsp 202,":s/20,20,0;#FFFFFF#FF4444【イソギンチャク娘】：水着の上から触手搾精",50,110:spbtn 202,202
lsp 203,":s/20,20,0;#FFFFFF#FF4444【イソギンチャク娘】：直に触手で（１回目）",50,140:spbtn 203,203
lsp 204,":s/20,20,0;#FFFFFF#FF4444【イソギンチャク娘】：直に触手で（２回目）",50,170:spbtn 204,204
lsp 205,":s/20,20,0;#FFFFFF#FF4444【イソギンチャク娘】：永遠の触手地獄",50,200:spbtn 205,205
lsp 206,":s/20,20,0;#FFFFFF#FF4444【スキュラ・レポート】：触手コキ（暴発）",50,230:spbtn 206,206
lsp 207,":s/20,20,0;#FFFFFF#FF4444【スキュラ・レポート】：触手コキ（お仕置き）",50,260:spbtn 207,207
lsp 208,":s/20,20,0;#FFFFFF#FF4444【スキュラさんとお風呂】：お風呂",50,290:spbtn 208,208
lsp 209,":s/20,20,0;#FFFFFF#FF4444【ラスト・エスケープ】：アレクサンドラ（触手巻き付き搾精）",50,320:spbtn 209,209
lsp 210,":s/20,20,0;#FFFFFF#FF4444【ヒドラ娘】：触手吸精",50,350:spbtn 210,210
lsp 211,":s/20,20,0;#FFFFFF#FF4444",50,380:spbtn 211,211
lsp 212,":s/20,20,0;#FFFFFF#FF4444",50,410:spbtn 212,212
lsp 213,":s/20,20,0;#FFFFFF#FF4444",50,440:spbtn 213,213

btnwait %bwait

if %bwait=112 mov %short_page,%short_page-1:cspl 301,303:goto *menu_short3
if %bwait=113 mov %short_page,%short_page+1:cspl 301,303:goto *menu_short3
if %bwait=202 gosub *start_short:hseanbgm:goto *chap_001_2
if %bwait=203 gosub *start_short:hseanbgm:goto *chap_001b_2
if %bwait=204 gosub *start_short:hseanbgm:goto *chap_001b_3
if %bwait=205 gosub *start_short:hseanbgm:goto *chap_001b_4
if %bwait=206 gosub *start_short:hseanbgm:goto *chap_012_1
if %bwait=207 gosub *start_short:hseanbgm:goto *chap_012_2
if %bwait=208 gosub *start_short:hseanbgm:goto *chap_012c_1
if %bwait=209 gosub *start_short:hseanbgm:goto *chap_018b4_19c
if %bwait=210 gosub *start_short:hseanbgm:goto *chap_024_1
if %bwait=111 screen_clear: goto *title				;「戻る」ボタン表示
if %bwait= -1 screen_clear: goto *title				;右クリック
if %bwait=-10 screen_clear: goto *title				;ESCキー
if %bwait=-11 screen_clear: goto *title				;スペースキー

goto *menu_short_page11



*menu_short_page12

btndef clear
lsp 111,":c/2,0,3;system\return.bmp",20,560:spbtn 111,111		;「戻る」ボタン表示
lsp 112,":c/2,0,3;system\menu_prev.jpg",310,500:spbtn 112,112
lsp 113,":c/2,0,3;system\menu_next.jpg",470,500:spbtn 113,113

lsp 201,":s/20,20,0;#FF4444触手・ツタ（吸引）",50,80
lsp 202,":s/20,20,0;#FFFFFF#FF4444【クリオネ娘】：搾精開始",50,110:spbtn 202,202
lsp 203,":s/20,20,0;#FFFFFF#FF4444【クリオネ娘】：無限搾精",50,140:spbtn 203,203
lsp 204,":s/20,20,0;#FFFFFF#FF4444【クリオネ娘】：家庭円満？",50,170:spbtn 204,204
lsp 205,":s/20,20,0;#FFFFFF#FF4444【スキュラ・レポート】：触手フェラ",50,200:spbtn 205,205
lsp 206,":s/20,20,0;#FFFFFF#FF4444【スキュラ・レポート】：おはようフェラ？",50,230:spbtn 206,206
lsp 207,":s/20,20,0;#FFFFFF#FF4444【スキュラさんとお風呂】：詰問射精",50,260:spbtn 207,207
lsp 208,":s/20,20,0;#FFFFFF#FF4444【ラスト・エスケープ】：プラント娘（遭遇〜ツタ吸引）",50,290:spbtn 208,208
lsp 209,":s/20,20,0;#FFFFFF#FF4444【ラスト・エスケープ】：プラント娘（屈服〜子房搾精）",50,320:spbtn 209,209
lsp 210,":s/20,20,0;#FFFFFF#FF4444【ラスト・エスケープ】：アレクサンドラ（触手吸引搾精）",50,350:spbtn 210,210
lsp 211,":s/20,20,0;#FFFFFF#FF4444【ラスト・エスケープ】：クリーチャー沙亜羅（プラント娘・ツタ吸引）",50,380:spbtn 211,211
lsp 212,":s/20,20,0;#FFFFFF#FF4444【ラフレシア娘】：廃人飼育",50,410:spbtn 212,212
lsp 213,":s/20,20,0;#FFFFFF#FF4444",50,440:spbtn 213,213

btnwait %bwait

if %bwait=112 mov %short_page,%short_page-1:cspl 301,303:goto *menu_short3
if %bwait=113 mov %short_page,%short_page+1:cspl 301,303:goto *menu_short3
if %bwait=202 gosub *start_short:hseanbgm:goto *chap_029_2
if %bwait=203 gosub *start_short:hseanbgm:goto *chap_029b_1
if %bwait=204 gosub *start_short:hseanbgm:goto *chap_029c_2
if %bwait=205 gosub *start_short:hseanbgm:goto *chap_012_3
if %bwait=206 gosub *start_short:goto *chap_012b_6
if %bwait=207 gosub *start_short:hseanbgm:goto *chap_012c_2
if %bwait=208 gosub *start_short:hseanbgm:goto *chap_018b3_16
if %bwait=209 gosub *start_short:hseanbgm:goto *chap_018i_1
if %bwait=210 gosub *start_short:hseanbgm:goto *chap_018b4_19d
if %bwait=211 gosub *start_short:hseanbgm:goto *chap_018j_23g
if %bwait=212 gosub *start_short:hseanbgm:goto *chap_014b_6
if %bwait=111 screen_clear: goto *title				;「戻る」ボタン表示
if %bwait= -1 screen_clear: goto *title				;右クリック
if %bwait=-10 screen_clear: goto *title				;ESCキー
if %bwait=-11 screen_clear: goto *title				;スペースキー

goto *menu_short_page12



*menu_short_page13

btndef clear
lsp 111,":c/2,0,3;system\return.bmp",20,560:spbtn 111,111		;「戻る」ボタン表示
lsp 112,":c/2,0,3;system\menu_prev.jpg",310,500:spbtn 112,112
lsp 113,":c/2,0,3;system\menu_next.jpg",470,500:spbtn 113,113

lsp 201,":s/20,20,0;#FF4444スライム・粘液",50,80
lsp 202,":s/20,20,0;#FFFFFF#FF4444【スライム娘】：のしかかられて〜生殺し〜射精",50,110:spbtn 202,202
lsp 203,":s/20,20,0;#FFFFFF#FF4444【スライム娘】：お仕置き〜射精",50,140:spbtn 203,203
lsp 204,":s/20,20,0;#FFFFFF#FF4444【スライム娘】：フルコース〜射精",50,170:spbtn 204,204
lsp 205,":s/20,20,0;#FFFFFF#FF4444【スライム娘】：フルコース全部〜連続射精",50,200:spbtn 205,205
lsp 206,":s/20,20,0;#FFFFFF#FF4444【ラスト・エスケープ】：アレクサンドラ（粘液搾精）",50,230:spbtn 206,206
lsp 207,":s/20,20,0;#FFFFFF#FF4444【妖魔貴族マルガレーテ　水責め器】：少年実験",50,260:spbtn 207,207
lsp 208,":s/20,20,0;#FFFFFF#FF4444【妖魔貴族マルガレーテ　水責め器】：水責め（１回目）",50,290:spbtn 208,208
lsp 209,":s/20,20,0;#FFFFFF#FF4444【妖魔貴族マルガレーテ　水責め器】：水責め（２回目〜陥落）",50,320:spbtn 209,209
lsp 210,":s/20,20,0;#FFFFFF#FF4444【妖魔貴族マルガレーテ　水責め器】：デスペナルティ",50,350:spbtn 210,210
lsp 211,":s/20,20,0;#FFFFFF#FF4444【妖魔貴族マルガレーテ　水責め器】：抱きかかえられて……（１回目）",50,380:spbtn 211,211
lsp 212,":s/20,20,0;#FFFFFF#FF4444【妖魔貴族マルガレーテ　水責め器】：抱きかかえられて……（２回目）",50,410:spbtn 212,212
lsp 213,":s/20,20,0;#FFFFFF#FF4444",50,440:spbtn 213,213

btnwait %bwait

if %bwait=112 mov %short_page,%short_page-1:cspl 301,303:goto *menu_short3
if %bwait=113 mov %short_page,%short_page+1:cspl 301,303:goto *menu_short3
if %bwait=202 gosub *start_short:hseanbgm:goto *chap_002_1
if %bwait=203 gosub *start_short:hseanbgm:goto *chap_002_2
if %bwait=204 gosub *start_short:hseanbgm:goto *chap_002_3
if %bwait=205 gosub *start_short:hseanbgm:goto *chap_002_4
if %bwait=206 gosub *start_short:hseanbgm:goto *chap_018b4_19
if %bwait=207 gosub *start_short:hseanbgm:goto *chap_028_1
if %bwait=208 gosub *start_short:hseanbgm:goto *chap_028_2
if %bwait=209 gosub *start_short:hseanbgm:goto *chap_028_3
if %bwait=210 gosub *start_short:hseanbgm:goto *chap_028_4
if %bwait=211 gosub *start_short:hseanbgm:goto *chap_028b_2
if %bwait=212 gosub *start_short:hseanbgm:goto *chap_028b_3
if %bwait=111 screen_clear: goto *title				;「戻る」ボタン表示
if %bwait= -1 screen_clear: goto *title				;右クリック
if %bwait=-10 screen_clear: goto *title				;ESCキー
if %bwait=-11 screen_clear: goto *title				;スペースキー

goto *menu_short_page13



*menu_short_page14

btndef clear
lsp 111,":c/2,0,3;system\return.bmp",20,560:spbtn 111,111		;「戻る」ボタン表示
lsp 112,":c/2,0,3;system\menu_prev.jpg",310,500:spbtn 112,112
lsp 113,":c/2,0,3;system\menu_next.jpg",470,500:spbtn 113,113

lsp 201,":s/20,20,0;#FF4444軟体・卵・奇妙な物体",50,80
lsp 202,":s/20,20,0;#FFFFFF#FF4444【ナメクジ娘】：粘膜愛撫",50,110:spbtn 202,202
lsp 203,":s/20,20,0;#FFFFFF#FF4444【ヒトデ娘】：全身愛撫〜ヒトデの腕で暴発",50,140:spbtn 203,203
lsp 204,":s/20,20,0;#FFFFFF#FF4444",50,170:spbtn 204,204
lsp 205,":s/20,20,0;#FF4444搾精植物",50,200
lsp 206,":s/20,20,0;#FFFFFF#FF4444【アラウネ・ブルーム】：アサガオ",50,230:spbtn 206,206
lsp 207,":s/20,20,0;#FFFFFF#FF4444【アラウネ・ブルーム】：チューリップ",50,260:spbtn 207,207
lsp 208,":s/20,20,0;#FFFFFF#FF4444【アラウネ・ブルーム】：ユリ",50,290:spbtn 208,208
lsp 209,":s/20,20,0;#FFFFFF#FF4444【アラウネ・ブルーム】：バラ〜以降",50,320:spbtn 209,209
lsp 210,":s/20,20,0;#FFFFFF#FF4444【ウツボカズラ娘】：捕精嚢での搾精",50,350:spbtn 210,210
lsp 211,":s/20,20,0;#FFFFFF#FF4444【ウツボカズラ娘】：捕精嚢での搾精（もっと激しく）",50,380:spbtn 211,211
lsp 212,":s/20,20,0;#FFFFFF#FF4444【ウツボカズラ娘】：巨大捕精嚢での搾精",50,410:spbtn 212,212
lsp 213,":s/20,20,0;#FFFFFF#FF4444【ウツボカズラ娘】：同化しての搾精",50,440:spbtn 213,213

btnwait %bwait

if %bwait=112 mov %short_page,%short_page-1:cspl 301,303:goto *menu_short3
if %bwait=113 mov %short_page,%short_page+1:cspl 301,303:goto *menu_short3
if %bwait=202 gosub *start_short:hseanbgm:goto *chap_025_1
if %bwait=203 gosub *start_short:hseanbgm:goto *chap_004_2
if %bwait=206 gosub *start_short:hseanbgm:goto *chap_026_1
if %bwait=207 gosub *start_short:hseanbgm:goto *chap_026_2
if %bwait=208 gosub *start_short:hseanbgm:goto *chap_026_3
if %bwait=209 gosub *start_short:hseanbgm:goto *chap_026_4
if %bwait=210 gosub *start_short:hseanbgm:goto *chap_007_2
if %bwait=211 gosub *start_short:hseanbgm:goto *chap_007_3
if %bwait=212 gosub *start_short:hseanbgm:goto *chap_007b_1
if %bwait=213 gosub *start_short:hseanbgm:goto *chap_007c_1
if %bwait=111 screen_clear: goto *title				;「戻る」ボタン表示
if %bwait= -1 screen_clear: goto *title				;右クリック
if %bwait=-10 screen_clear: goto *title				;ESCキー
if %bwait=-11 screen_clear: goto *title				;スペースキー

goto *menu_short_page14



*menu_short_page15

btndef clear
lsp 111,":c/2,0,3;system\return.bmp",20,560:spbtn 111,111		;「戻る」ボタン表示
lsp 112,":c/2,0,3;system\menu_prev.jpg",310,500:spbtn 112,112
lsp 113,":c/2,0,3;system\menu_next.jpg",470,500:spbtn 113,113

lsp 201,":s/20,20,0;#FF4444搾精植物",50,80
lsp 202,":s/20,20,0;#FFFFFF#FF4444【ラスト・エスケープ】：プラント娘（遭遇〜ツタ吸引）",50,110:spbtn 202,202
lsp 203,":s/20,20,0;#FFFFFF#FF4444【ラスト・エスケープ】：プラント娘（屈服〜子房搾精）",50,140:spbtn 203,203
lsp 204,":s/20,20,0;#FFFFFF#FF4444【ラスト・エスケープ】：クリーチャー沙亜羅（プラント娘・ツタ吸引）",50,170:spbtn 204,204
lsp 205,":s/20,20,0;#FFFFFF#FF4444【ハエトリグサ娘】：会話〜搾精",50,200:spbtn 205,205
lsp 206,":s/20,20,0;#FFFFFF#FF4444【ハエトリグサ娘】：捕精葉による搾精（１回目）",50,230:spbtn 206,206
lsp 207,":s/20,20,0;#FFFFFF#FF4444【ハエトリグサ娘】：捕精葉による搾精（２回目）",50,260:spbtn 207,207
lsp 208,":s/20,20,0;#FFFFFF#FF4444【ハエトリグサ娘】：捕精葉３つによる搾精",50,290:spbtn 208,208
lsp 209,":s/20,20,0;#FFFFFF#FF4444【ハエトリグサ娘】：捕精葉複数による連続搾精",50,320:spbtn 209,209
lsp 210,":s/20,20,0;#FFFFFF#FF4444【モウセンゴケ娘】：巨大モウセンゴケに",50,350:spbtn 210,210
lsp 211,":s/20,20,0;#FFFFFF#FF4444【モウセンゴケ娘】：少女の観察",50,380:spbtn 211,211
lsp 212,":s/20,20,0;#FFFFFF#FF4444【モウセンゴケ娘】：さらに観察",50,410:spbtn 212,212
lsp 213,":s/20,20,0;#FFFFFF#FF4444【モウセンゴケ娘】：強制失禁",50,440:spbtn 213,213

btnwait %bwait

if %bwait=112 mov %short_page,%short_page-1:cspl 301,303:goto *menu_short3
if %bwait=113 mov %short_page,%short_page+1:cspl 301,303:goto *menu_short3
if %bwait=202 gosub *start_short:hseanbgm:goto *chap_018b3_16
if %bwait=203 gosub *start_short:hseanbgm:goto *chap_018i_1
if %bwait=204 gosub *start_short:hseanbgm:goto *chap_018j_23g
if %bwait=205 gosub *start_short:hseanbgm:goto *chap_010_1
if %bwait=206 gosub *start_short:hseanbgm:goto *chap_010_2
if %bwait=207 gosub *start_short:hseanbgm:goto *chap_010_3
if %bwait=208 gosub *start_short:hseanbgm:goto *chap_010_4
if %bwait=209 gosub *start_short:hseanbgm:goto *chap_010_5
if %bwait=210 gosub *start_short:hseanbgm:goto *chap_020_1
if %bwait=211 gosub *start_short:hseanbgm:goto *chap_020_2
if %bwait=212 gosub *start_short:hseanbgm:goto *chap_020_3
if %bwait=213 gosub *start_short:hseanbgm:goto *chap_020_4
if %bwait=111 screen_clear: goto *title				;「戻る」ボタン表示
if %bwait= -1 screen_clear: goto *title				;右クリック
if %bwait=-10 screen_clear: goto *title				;ESCキー
if %bwait=-11 screen_clear: goto *title				;スペースキー

goto *menu_short_page15



*menu_short_page16

btndef clear
lsp 111,":c/2,0,3;system\return.bmp",20,560:spbtn 111,111		;「戻る」ボタン表示
lsp 112,":c/2,0,3;system\menu_prev.jpg",310,500:spbtn 112,112
lsp 113,":c/2,0,3;system\menu_next.jpg",470,500:spbtn 113,113

lsp 201,":s/20,20,0;#FF4444搾精植物",50,80
lsp 202,":s/20,20,0;#FFFFFF#FF4444【モウセンゴケ娘】：強制失神",50,110:spbtn 202,202
lsp 203,":s/20,20,0;#FFFFFF#FF4444【ラフレシア娘】：搾精〜受精",50,140:spbtn 203,203
lsp 204,":s/20,20,0;#FFFFFF#FF4444【ラフレシア娘】：御褒美",50,170:spbtn 204,204
lsp 205,":s/20,20,0;#FFFFFF#FF4444【ラフレシア娘】：さらに御褒美",50,200:spbtn 205,205
lsp 206,":s/20,20,0;#FFFFFF#FF4444【ラフレシア娘】：もっと御褒美",50,230:spbtn 206,206
lsp 207,":s/20,20,0;#FFFFFF#FF4444【ラフレシア娘】：廃人飼育",50,260:spbtn 207,207
lsp 208,":s/20,20,0;#FFFFFF#FF4444",50,290:spbtn 208,208
lsp 209,":s/20,20,0;#FF4444糸・粘糸",50,320
lsp 210,":s/20,20,0;#FFFFFF#FF4444【クモ娘】：繭での搾精（１回目）",50,350:spbtn 210,210
lsp 211,":s/20,20,0;#FFFFFF#FF4444【クモ娘】：繭での搾精（２回目）",50,380:spbtn 211,211
lsp 212,":s/20,20,0;#FFFFFF#FF4444【クモ娘】：永遠の繭",50,410:spbtn 212,212
lsp 213,":s/20,20,0;#FFFFFF#FF4444",50,440:spbtn 213,213

btnwait %bwait

if %bwait=112 mov %short_page,%short_page-1:cspl 301,303:goto *menu_short3
if %bwait=113 mov %short_page,%short_page+1:cspl 301,303:goto *menu_short3
if %bwait=202 gosub *start_short:hseanbgm:goto *chap_020_5
if %bwait=203 gosub *start_short:hseanbgm:goto *chap_014_1
if %bwait=204 gosub *start_short:hseanbgm:goto *chap_014_2
if %bwait=205 gosub *start_short:hseanbgm:goto *chap_014_3
if %bwait=206 gosub *start_short:hseanbgm:goto *chap_014_4
if %bwait=207 gosub *start_short:goto *chap_014b_6
if %bwait=210 gosub *start_short:hseanbgm:goto *chap_005_1
if %bwait=211 gosub *start_short:hseanbgm:goto *chap_005_2
if %bwait=212 gosub *start_short:hseanbgm:goto *chap_005c_1
if %bwait=111 screen_clear: goto *title				;「戻る」ボタン表示
if %bwait= -1 screen_clear: goto *title				;右クリック
if %bwait=-10 screen_clear: goto *title				;ESCキー
if %bwait=-11 screen_clear: goto *title				;スペースキー

goto *menu_short_page16



*menu_short_page17

btndef clear
lsp 111,":c/2,0,3;system\return.bmp",20,560:spbtn 111,111		;「戻る」ボタン表示
lsp 112,":c/2,0,3;system\menu_prev.jpg",310,500:spbtn 112,112
lsp 113,":c/2,0,3;system\menu_next.jpg",470,500:spbtn 113,113

lsp 201,":s/20,20,0;#FF4444着衣コキ・衣服責め（魔力・異形）",50,80
lsp 202,":s/20,20,0;#FFFFFF#FF4444【大魔導師アリスプラム】：戴師の儀・靴下",50,110:spbtn 202,202
lsp 203,":s/20,20,0;#FFFFFF#FF4444【大魔導師アリスプラム】：修行・皮手袋",50,140:spbtn 203,203
lsp 204,":s/20,20,0;#FFFFFF#FF4444【ドレス・アナスタシア】：抱え上げられ、ショールで……",50,170:spbtn 204,204
lsp 205,":s/20,20,0;#FFFFFF#FF4444【ドレス・アナスタシア】：拘束されて、トレーンで……",50,200:spbtn 205,205
lsp 206,":s/20,20,0;#FFFFFF#FF4444【ドレス・アナスタシア】：吊るされて、胸で……",50,230:spbtn 206,206
lsp 207,":s/20,20,0;#FFFFFF#FF4444【ドレス・アナスタシア】：抱き締められ、スカートで……",50,260:spbtn 207,207
lsp 208,":s/20,20,0;#FFFFFF#FF4444【ドレス・アナスタシア】：礼拝堂の恋人",50,290:spbtn 208,208
lsp 209,":s/20,20,0;#FFFFFF#FF4444【ドレス・アナスタシア】：下宿先の恋人",50,320:spbtn 209,209
lsp 210,":s/20,20,0;#FFFFFF#FF4444",50,350:spbtn 210,210
lsp 211,":s/20,20,0;#FF4444オナホ・搾精器具・拷問機責め",50,380
lsp 212,":s/20,20,0;#FFFFFF#FF4444【科学者アルベルティーネ　生体オナホール】：オナホール解説",50,410:spbtn 212,212
lsp 213,":s/20,20,0;#FFFFFF#FF4444【科学者アルベルティーネ　生体オナホール】：オナホール１回目",50,440:spbtn 213,213

btnwait %bwait

if %bwait=112 mov %short_page,%short_page-1:cspl 301,303:goto *menu_short3
if %bwait=113 mov %short_page,%short_page+1:cspl 301,303:goto *menu_short3
if %bwait=202 gosub *start_short:hseanbgm:goto *chap_023_3
if %bwait=203 gosub *start_short:hseanbgm:goto *chap_023_4
if %bwait=204 gosub *start_short:hseanbgm:goto *chap_015_2
if %bwait=205 gosub *start_short:hseanbgm:goto *chap_015_3
if %bwait=206 gosub *start_short:hseanbgm:goto *chap_015_4
if %bwait=207 gosub *start_short:hseanbgm:goto *chap_015_5
if %bwait=208 gosub *start_short:hseanbgm:goto *chap_015_6
if %bwait=209 gosub *start_short:goto *chap_015b_7
if %bwait=212 gosub *start_short:hseanbgm:goto *chap_021_1
if %bwait=213 gosub *start_short:hseanbgm:goto *chap_021_2
if %bwait=111 screen_clear: goto *title				;「戻る」ボタン表示
if %bwait= -1 screen_clear: goto *title				;右クリック
if %bwait=-10 screen_clear: goto *title				;ESCキー
if %bwait=-11 screen_clear: goto *title				;スペースキー

goto *menu_short_page17



*menu_short_page18

btndef clear
lsp 111,":c/2,0,3;system\return.bmp",20,560:spbtn 111,111		;「戻る」ボタン表示
lsp 112,":c/2,0,3;system\menu_prev.jpg",310,500:spbtn 112,112
lsp 113,":c/2,0,3;system\menu_next.jpg",470,500:spbtn 113,113

lsp 201,":s/20,20,0;#FF4444オナホ・搾精器具・拷問機責め",50,80
lsp 202,":s/20,20,0;#FFFFFF#FF4444【科学者アルベルティーネ　生体オナホール】：オナホール連続",50,110:spbtn 202,202
lsp 203,":s/20,20,0;#FFFFFF#FF4444【科学者アルベルティーネ　生体オナホール】：オナホール連続・実験台",50,140:spbtn 203,203
lsp 204,":s/20,20,0;#FFFFFF#FF4444【妖魔貴族マルガレーテ　アイアン・メイデン】：拷問開始〜搾精１回目",50,170:spbtn 204,204
lsp 205,":s/20,20,0;#FFFFFF#FF4444【妖魔貴族マルガレーテ　アイアン・メイデン】：搾精２回目",50,200:spbtn 205,205
lsp 206,":s/20,20,0;#FFFFFF#FF4444【妖魔貴族マルガレーテ　アイアン・メイデン】：命、尽きるまで",50,230:spbtn 206,206
lsp 207,":s/20,20,0;#FFFFFF#FF4444【妖魔貴族マルガレーテ　ユダの揺籠】：拷問開始",50,260:spbtn 207,207
lsp 208,":s/20,20,0;#FFFFFF#FF4444【妖魔貴族マルガレーテ　ユダの揺籠】：瞬時の屈服",50,290:spbtn 208,208
lsp 209,":s/20,20,0;#FFFFFF#FF4444【妖魔貴族マルガレーテ　ユダの揺籠】：10分経過",50,320:spbtn 209,209
lsp 210,":s/20,20,0;#FFFFFF#FF4444【妖魔貴族マルガレーテ　ユダの揺籠】：10分の屈服",50,350:spbtn 210,210
lsp 211,":s/20,20,0;#FFFFFF#FF4444【妖魔貴族マルガレーテ　ユダの揺籠】：20分経過",50,380:spbtn 211,211
lsp 212,":s/20,20,0;#FFFFFF#FF4444【妖魔貴族マルガレーテ　ユダの揺籠】：20分の屈服",50,410:spbtn 212,212
lsp 213,":s/20,20,0;#FFFFFF#FF4444",50,440:spbtn 213,213

btnwait %bwait

if %bwait=112 mov %short_page,%short_page-1:cspl 301,303:goto *menu_short3
if %bwait=113 mov %short_page,%short_page+1:cspl 301,303:goto *menu_short3
if %bwait=202 gosub *start_short:hseanbgm:goto *chap_021_3
if %bwait=203 gosub *start_short:hseanbgm:goto *chap_021b_3
if %bwait=204 gosub *start_short:hseanbgm:goto *chap_013_2
if %bwait=205 gosub *start_short:hseanbgm:goto *chap_013_3
if %bwait=206 gosub *start_short:hseanbgm:goto *chap_013_4
if %bwait=207 gosub *start_short:hseanbgm:goto *chap_008_2
if %bwait=208 gosub *start_short:hseanbgm:goto *chap_008a_1
if %bwait=209 gosub *start_short:hseanbgm:goto *chap_008b_1
if %bwait=210 gosub *start_short:hseanbgm:goto *chap_008c_1
if %bwait=211 gosub *start_short:hseanbgm:goto *chap_008d_1
if %bwait=212 gosub *start_short:hseanbgm:goto *chap_008e_1
if %bwait=111 screen_clear: goto *title				;「戻る」ボタン表示
if %bwait= -1 screen_clear: goto *title				;右クリック
if %bwait=-10 screen_clear: goto *title				;ESCキー
if %bwait=-11 screen_clear: goto *title				;スペースキー

goto *menu_short_page18



*menu_short_page19

btndef clear
lsp 111,":c/2,0,3;system\return.bmp",20,560:spbtn 111,111		;「戻る」ボタン表示
lsp 112,":c/2,0,3;system\menu_prev.jpg",310,500:spbtn 112,112
lsp 113,":c/2,0,3;system\menu_next.jpg",470,500:spbtn 113,113

lsp 201,":s/20,20,0;#FF4444搾精機械・吸引器責め",50,80
lsp 202,":s/20,20,0;#FFFFFF#FF4444【女給仕エミリア第１話】：掃除機でお掃除",50,110:spbtn 202,202
lsp 203,":s/20,20,0;#FFFFFF#FF4444【女給仕エミリア第１話】：掃除機ＥＮＤ",50,140:spbtn 203,203
lsp 204,":s/20,20,0;#FFFFFF#FF4444【誘拐魔ヒルフェレス　自動販売機】：最初の客",50,170:spbtn 204,204
lsp 205,":s/20,20,0;#FFFFFF#FF4444【誘拐魔ヒルフェレス　自動販売機】：女子高生２人組",50,200:spbtn 205,205
lsp 206,":s/20,20,0;#FFFFFF#FF4444",50,230:spbtn 206,206
lsp 207,":s/20,20,0;#FF4444小道具・食物責め",50,260
lsp 208,":s/20,20,0;#FFFFFF#FF4444【女給仕エミリア第１話】：雑巾でお掃除",50,290:spbtn 208,208
lsp 209,":s/20,20,0;#FFFFFF#FF4444【女給仕エミリア第１話】：雑巾ＥＮＤ",50,320:spbtn 209,209
lsp 210,":s/20,20,0;#FFFFFF#FF4444",50,350:spbtn 210,210
lsp 211,":s/20,20,0;#FF4444下等搾精生物による責め",50,380
lsp 212,":s/20,20,0;#FFFFFF#FF4444【ラスト・エスケープ】：ヒル娘（遭遇〜搾精）",50,410:spbtn 212,212
lsp 213,":s/20,20,0;#FFFFFF#FF4444【ラスト・エスケープ】：ヒル娘（屈服〜永遠搾精）",50,440:spbtn 213,213

btnwait %bwait

if %bwait=112 mov %short_page,%short_page-1:cspl 301,303:goto *menu_short3
if %bwait=113 mov %short_page,%short_page+1:cspl 301,303:goto *menu_short3
if %bwait=202 gosub *start_short:hseanbgm:goto *chap_017_2
if %bwait=203 gosub *start_short:hseanbgm:goto *chap_017b_1
if %bwait=204 gosub *start_short:hseanbgm:goto *chap_022_2
if %bwait=205 gosub *start_short:hseanbgm:goto *chap_022_3
if %bwait=208 gosub *start_short:hseanbgm:goto *chap_017_1
if %bwait=209 gosub *start_short:hseanbgm:goto *chap_017a_1
if %bwait=212 gosub *start_short:hseanbgm:goto *chap_018b2_10
if %bwait=213 gosub *start_short:hseanbgm:goto *chap_018g_1
if %bwait=111 screen_clear: goto *title				;「戻る」ボタン表示
if %bwait= -1 screen_clear: goto *title				;右クリック
if %bwait=-10 screen_clear: goto *title				;ESCキー
if %bwait=-11 screen_clear: goto *title				;スペースキー

goto *menu_short_page19



*menu_short_page20

btndef clear
lsp 111,":c/2,0,3;system\return.bmp",20,560:spbtn 111,111		;「戻る」ボタン表示
lsp 112,":c/2,0,3;system\menu_prev.jpg",310,500:spbtn 112,112
lsp 113,":c/2,0,3;system\menu_next.jpg",470,500:spbtn 113,113

lsp 201,":s/20,20,0;#FF4444下等搾精生物による責め",50,80
lsp 202,":s/20,20,0;#FFFFFF#FF4444【フェイスハガー娘】：遭遇〜カウント１",50,110:spbtn 202,202
lsp 203,":s/20,20,0;#FFFFFF#FF4444【フェイスハガー娘】：カウント２",50,140:spbtn 203,203
lsp 204,":s/20,20,0;#FFFFFF#FF4444【フェイスハガー娘】：カウント３",50,170:spbtn 204,204
lsp 205,":s/20,20,0;#FFFFFF#FF4444【フェイスハガー娘】：カウント４",50,200:spbtn 205,205
lsp 206,":s/20,20,0;#FFFFFF#FF4444【フェイスハガー娘】：カウント５",50,230:spbtn 206,206
lsp 207,":s/20,20,0;#FFFFFF#FF4444",50,260:spbtn 207,207
lsp 208,":s/20,20,0;#FF4444ゾンビ姦",50,290
lsp 209,":s/20,20,0;#FFFFFF#FF4444【ゾンビ娘】：屍に犯されて（１回目）",50,320:spbtn 209,209
lsp 210,":s/20,20,0;#FFFFFF#FF4444【ゾンビ娘】：屍に犯されて（２〜３回目）",50,350:spbtn 210,210
lsp 211,":s/20,20,0;#FFFFFF#FF4444【ラスト・エスケープ】：ゾンビ娘（遭遇〜騎乗位逆レイプ）",50,380:spbtn 211,211
lsp 212,":s/20,20,0;#FFFFFF#FF4444【ラスト・エスケープ】：ゾンビ娘（屈服〜騎乗位連続搾精）",50,410:spbtn 212,212
lsp 213,":s/20,20,0;#FFFFFF#FF4444",50,440:spbtn 213,213

btnwait %bwait

if %bwait=112 mov %short_page,%short_page-1:cspl 301,303:goto *menu_short3
if %bwait=113 mov %short_page,%short_page+1:cspl 301,303:goto *menu_short3
if %bwait=202 gosub *start_short:hseanbgm:goto *chap_011_1
if %bwait=203 gosub *start_short:hseanbgm:goto *chap_011_2
if %bwait=204 gosub *start_short:hseanbgm:goto *chap_011_3
if %bwait=205 gosub *start_short:hseanbgm:goto *chap_011_4
if %bwait=206 gosub *start_short:hseanbgm:goto *chap_011_5
if %bwait=209 gosub *start_short:hseanbgm:goto *chap_018_2
if %bwait=210 gosub *start_short:hseanbgm:goto *chap_018_3
if %bwait=211 gosub *start_short:hseanbgm:goto *chap_018b_1
if %bwait=212 gosub *start_short:hseanbgm:goto *chap_018c_1
if %bwait=111 screen_clear: goto *title				;「戻る」ボタン表示
if %bwait= -1 screen_clear: goto *title				;右クリック
if %bwait=-10 screen_clear: goto *title				;ESCキー
if %bwait=-11 screen_clear: goto *title				;スペースキー

goto *menu_short_page20



*menu_short_page21

btndef clear
lsp 111,":c/2,0,3;system\return.bmp",20,560:spbtn 111,111		;「戻る」ボタン表示
lsp 112,":c/2,0,3;system\menu_prev.jpg",310,500:spbtn 112,112
lsp 113,":c/2,0,3;system\menu_next.jpg",470,500:spbtn 113,113

lsp 201,":s/20,20,0;#FF4444娘との交接",50,80
lsp 202,":s/20,20,0;#FFFFFF#FF4444【クリオネ娘】：家庭円満？",50,110:spbtn 202,202
lsp 203,":s/20,20,0;#FFFFFF#FF4444",50,140:spbtn 203,203
lsp 204,":s/20,20,0;#FF4444泡・洗い責め",50,170
lsp 205,":s/20,20,0;#FFFFFF#FF4444【女給仕エミリア第１話】：お風呂での洗い責め",50,200:spbtn 205,205
lsp 206,":s/20,20,0;#FFFFFF#FF4444【女給仕エミリア第１話】：洗い責めＥＮＤ",50,230:spbtn 206,206
lsp 207,":s/20,20,0;#FFFFFF#FF4444",50,260:spbtn 207,207
lsp 208,":s/20,20,0;#FF4444失禁責め",50,290
lsp 209,":s/20,20,0;#FFFFFF#FF4444【モウセンゴケ娘】：強制失禁",50,320:spbtn 209,209
lsp 210,":s/20,20,0;#FFFFFF#FF4444【女給仕エミリア第１話】：洗い責めＥＮＤ",50,350:spbtn 210,210
lsp 211,":s/20,20,0;#FFFFFF#FF4444",50,380:spbtn 211,211
lsp 212,":s/20,20,0;#FF4444包茎責め",50,410
lsp 213,":s/20,20,0;#FFFFFF#FF4444【あかなめ】：股間責め（皮）",50,440:spbtn 213,213

btnwait %bwait

if %bwait=112 mov %short_page,%short_page-1:cspl 301,303:goto *menu_short3
if %bwait=113 mov %short_page,%short_page+1:cspl 301,303:goto *menu_short3
if %bwait=202 gosub *start_short:hseanbgm:goto *chap_029c_2
if %bwait=205 gosub *start_short:hseanbgm:goto *chap_017_4
if %bwait=206 gosub *start_short:hseanbgm:goto *chap_017c_1
if %bwait=209 gosub *start_short:hseanbgm:goto *chap_020_4
if %bwait=210 gosub *start_short:hseanbgm:goto *chap_017c_1
if %bwait=213 gosub *start_short:hseanbgm:goto *chap_027_2
if %bwait=111 screen_clear: goto *title				;「戻る」ボタン表示
if %bwait= -1 screen_clear: goto *title				;右クリック
if %bwait=-10 screen_clear: goto *title				;ESCキー
if %bwait=-11 screen_clear: goto *title				;スペースキー

goto *menu_short_page21



*menu_short_page22

btndef clear
lsp 111,":c/2,0,3;system\return.bmp",20,560:spbtn 111,111		;「戻る」ボタン表示
lsp 112,":c/2,0,3;system\menu_prev.jpg",310,500:spbtn 112,112
lsp 113,":c/2,0,3;system\menu_next.jpg",470,500:spbtn 113,113

lsp 201,":s/20,20,0;#FF4444匂い責め",50,80
lsp 202,":s/20,20,0;#FFFFFF#FF4444【アルラウネ】：匂いで射精",50,110:spbtn 202,202
lsp 203,":s/20,20,0;#FFFFFF#FF4444【大魔導師アリスプラム】：戴師の儀・脇",50,140:spbtn 203,203
lsp 204,":s/20,20,0;#FFFFFF#FF4444【誘拐魔ヒルフェレス 自動販売機】：拉致",50,170:spbtn 204,204
lsp 205,":s/20,20,0;#FFFFFF#FF4444",50,200:spbtn 205,205
lsp 206,":s/20,20,0;#FF4444魔法責め",50,230
lsp 207,":s/20,20,0;#FFFFFF#FF4444【大魔導師アリスプラム】：魔法搾精",50,260:spbtn 207,207
lsp 208,":s/20,20,0;#FFFFFF#FF4444【大魔導師アリスプラム】：戴師の儀・靴下",50,290:spbtn 208,208
lsp 209,":s/20,20,0;#FFFFFF#FF4444【大魔導師アリスプラム】：修行・皮手袋",50,320:spbtn 209,209
lsp 210,":s/20,20,0;#FFFFFF#FF4444",50,350:spbtn 210,210
lsp 211,":s/20,20,0;#FF4444顔面騎乗",50,380
lsp 212,":s/20,20,0;#FFFFFF#FF4444【誘拐魔ヒルフェレス　自動販売機】：拉致",50,410:spbtn 212,212
lsp 213,":s/20,20,0;#FFFFFF#FF4444",50,440:spbtn 213,213

btnwait %bwait

if %bwait=112 mov %short_page,%short_page-1:cspl 301,303:goto *menu_short3
if %bwait=113 mov %short_page,%short_page+1:cspl 301,303:goto *menu_short3
if %bwait=202 gosub *start_short:hseanbgm:goto *chap_016_1
if %bwait=203 gosub *start_short:hseanbgm:goto *chap_023_2
if %bwait=204 gosub *start_short:hseanbgm:goto *chap_022_1
if %bwait=207 gosub *start_short:hseanbgm:goto *chap_023_1
if %bwait=208 gosub *start_short:hseanbgm:goto *chap_023_3
if %bwait=209 gosub *start_short:hseanbgm:goto *chap_023_4
if %bwait=212 gosub *start_short:bgm"bgm\shinpi.ogg":goto *chap_022_1
if %bwait=111 screen_clear: goto *title				;「戻る」ボタン表示
if %bwait= -1 screen_clear: goto *title				;右クリック
if %bwait=-10 screen_clear: goto *title				;ESCキー
if %bwait=-11 screen_clear: goto *title				;スペースキー

goto *menu_short_page22



*menu_short_page23

btndef clear
lsp 111,":c/2,0,3;system\return.bmp",20,560:spbtn 111,111		;「戻る」ボタン表示
lsp 112,":c/2,0,3;system\menu_prev.jpg",310,500:spbtn 112,112
lsp 113,":c/2,0,3;system\menu_next.jpg",470,500:spbtn 113,113

lsp 201,":s/20,20,0;#FF4444キス",50,80
lsp 202,":s/20,20,0;#FFFFFF#FF4444【妖魔貴族マルガレーテ　ユダの揺籠】：祝福の接吻",50,110:spbtn 202,202
lsp 203,":s/20,20,0;#FFFFFF#FF4444",50,140:spbtn 203,203
lsp 204,":s/20,20,0;#FF4444ロール責め",50,170
lsp 205,":s/20,20,0;#FFFFFF#FF4444【ミミズ娘】：拘束",50,200:spbtn 205,205
lsp 206,":s/20,20,0;#FFFFFF#FF4444【ラミア】：ラミアの抱擁",50,230:spbtn 206,206
lsp 207,":s/20,20,0;#FFFFFF#FF4444【ラミア】：蛇体全身嫐り",50,260:spbtn 207,207
lsp 208,":s/20,20,0;#FFFFFF#FF4444",50,290:spbtn 208,208
lsp 209,":s/20,20,0;#FF4444捕食",50,320
lsp 210,":s/20,20,0;#FFFFFF#FF4444【イソギンチャク娘】：口盤での捕食",50,350:spbtn 210,210
lsp 211,":s/20,20,0;#FFFFFF#FF4444【ウツボカズラ娘】：捕食",50,380:spbtn 211,211
lsp 212,":s/20,20,0;#FFFFFF#FF4444【ウツボカズラ娘】：同化してのペニス捕食",50,410:spbtn 212,212
lsp 213,":s/20,20,0;#FFFFFF#FF4444【クモ娘】：捕食",50,440:spbtn 213,213

btnwait %bwait

if %bwait=112 mov %short_page,%short_page-1:cspl 301,303:goto *menu_short3
if %bwait=113 mov %short_page,%short_page+1:cspl 301,303:goto *menu_short3
if %bwait=202 gosub *start_short:hseanbgm:goto *chap_008f_2
if %bwait=205 gosub *start_short:hseanbgm:goto *chap_006_1
if %bwait=206 gosub *start_short:hseanbgm:goto *chap_009_1
if %bwait=207 gosub *start_short:hseanbgm:goto *chap_009b_2
if %bwait=210 gosub *start_short:hseanbgm:goto *chap_001c_4
if %bwait=211 gosub *start_short:hseanbgm:goto *chap_007b_2
if %bwait=212 gosub *start_short:hseanbgm:goto *chap_007c_2
if %bwait=213 gosub *start_short:hseanbgm:goto *chap_005b_1
if %bwait=111 screen_clear: goto *title				;「戻る」ボタン表示
if %bwait= -1 screen_clear: goto *title				;右クリック
if %bwait=-10 screen_clear: goto *title				;ESCキー
if %bwait=-11 screen_clear: goto *title				;スペースキー

goto *menu_short_page23



*menu_short_page24

btndef clear
lsp 111,":c/2,0,3;system\return.bmp",20,560:spbtn 111,111		;「戻る」ボタン表示
lsp 112,":c/2,0,3;system\menu_prev.jpg",310,500:spbtn 112,112
lsp 113,":c/2,0,3;system\menu_next.jpg",470,500:spbtn 113,113

lsp 201,":s/20,20,0;#FF4444捕食",50,80
lsp 202,":s/20,20,0;#FFFFFF#FF4444【クリオネ娘】：梨香捕食",50,110:spbtn 202,202
lsp 203,":s/20,20,0;#FFFFFF#FF4444【クリオネ娘】：遼一捕食",50,140:spbtn 203,203
lsp 204,":s/20,20,0;#FFFFFF#FF4444【スキュラ・レポート】：捕食",50,170:spbtn 204,204
lsp 205,":s/20,20,0;#FFFFFF#FF4444【ラスト・エスケープ】：ハンター娘（屈服〜捕食）",50,200:spbtn 205,205
lsp 206,":s/20,20,0;#FFFFFF#FF4444【ハエトリグサ娘】：捕食",50,230:spbtn 206,206
lsp 207,":s/20,20,0;#FFFFFF#FF4444【ヒトデ娘】：捕食",50,260:spbtn 207,207
lsp 208,":s/20,20,0;#FFFFFF#FF4444【ヒドラ娘】：捕食",50,290:spbtn 208,208
lsp 209,":s/20,20,0;#FFFFFF#FF4444【二口女】：捕食",50,320:spbtn 209,209
lsp 210,":s/20,20,0;#FFFFFF#FF4444【モウセンゴケ娘】：強制失神",50,350:spbtn 210,210
lsp 211,":s/20,20,0;#FFFFFF#FF4444【ラミア】：ラミアの捕食",50,380:spbtn 211,211
lsp 212,":s/20,20,0;#FFFFFF#FF4444【妖魔貴族マルガレーテ　水責め器】：狂おしい捕食",50,410:spbtn 212,212
lsp 213,":s/20,20,0;#FFFFFF#FF4444",50,440:spbtn 213,213

btnwait %bwait

if %bwait=112 mov %short_page,%short_page-1:cspl 301,303:goto *menu_short3
if %bwait=113 mov %short_page,%short_page+1:cspl 301,303:goto *menu_short3
if %bwait=202 gosub *start_short:hseanbgm:goto *chap_029_3
if %bwait=203 gosub *start_short:hseanbgm:goto *chap_029a_1
if %bwait=204 gosub *start_short:hseanbgm:goto *chap_012_6
if %bwait=205 gosub *start_short:hseanbgm:goto *chap_018f_1
if %bwait=206 gosub *start_short:hseanbgm:goto *chap_010_6
if %bwait=207 gosub *start_short:hseanbgm:goto *chap_004b_1
if %bwait=208 gosub *start_short:hseanbgm:goto *chap_024_4
if %bwait=209 gosub *start_short:hseanbgm:goto *chap_019_6
if %bwait=210 gosub *start_short:hseanbgm:goto *chap_020_5
if %bwait=211 gosub *start_short:hseanbgm:goto *chap_009b_3
if %bwait=212 gosub *start_short:hseanbgm:goto *chap_028b_4
if %bwait=111 screen_clear: goto *title				;「戻る」ボタン表示
if %bwait= -1 screen_clear: goto *title				;右クリック
if %bwait=-10 screen_clear: goto *title				;ESCキー
if %bwait=-11 screen_clear: goto *title				;スペースキー

goto *menu_short_page24



*menu_short_page25

btndef clear
lsp 111,":c/2,0,3;system\return.bmp",20,560:spbtn 111,111		;「戻る」ボタン表示
lsp 112,":c/2,0,3;system\menu_prev.jpg",310,500:spbtn 112,112
lsp 113,":c/2,0,3;system\menu_next.jpg",470,500:spbtn 113,113

lsp 201,":s/20,20,0;#FF4444前戯・淫語での誘い・搾精器官見せ付け",50,80
lsp 202,":s/20,20,0;#FFFFFF#FF4444【ウツボカズラ娘】：会話",50,110:spbtn 202,202
lsp 203,":s/20,20,0;#FFFFFF#FF4444【ラスト・エスケープ】：アレクサンドラ（搾精の女王に誘われて）",50,140:spbtn 203,203
lsp 204,":s/20,20,0;#FFFFFF#FF4444【ハエトリグサ娘】：会話〜搾精",50,170:spbtn 204,204
lsp 205,":s/20,20,0;#FFFFFF#FF4444【ヒトデ娘】：会話",50,200:spbtn 205,205
lsp 206,":s/20,20,0;#FFFFFF#FF4444【二口女】：淫らな食事",50,230:spbtn 206,206
lsp 207,":s/20,20,0;#FFFFFF#FF4444【二口女】：誘う女",50,260:spbtn 207,207
lsp 208,":s/20,20,0;#FFFFFF#FF4444【科学者アルベルティーネ　生体オナホール】：オナホール解説",50,290:spbtn 208,208
lsp 209,":s/20,20,0;#FFFFFF#FF4444【妖魔貴族マルガレーテ　アイアン・メイデン】：拷問解説",50,320:spbtn 209,209
lsp 210,":s/20,20,0;#FFFFFF#FF4444【妖魔貴族マルガレーテ　ユダの揺籠】：拷問解説",50,350:spbtn 210,210
lsp 211,":s/20,20,0;#FFFFFF#FF4444",50,380:spbtn 211,211
lsp 212,":s/20,20,0;#FFFFFF#FF4444",50,410:spbtn 212,212
lsp 213,":s/20,20,0;#FFFFFF#FF4444",50,440:spbtn 213,213

btnwait %bwait

if %bwait=112 mov %short_page,%short_page-1:cspl 301,303:goto *menu_short3
if %bwait=113 mov %short_page,%short_page+1:cspl 301,303:goto *menu_short3
if %bwait=202 gosub *start_short:hseanbgm:goto *chap_007_1
if %bwait=203 gosub *start_short:hseanbgm:goto *chap_018b4_20
if %bwait=204 gosub *start_short:hseanbgm:goto *chap_010_1
if %bwait=205 gosub *start_short:hseanbgm:goto *chap_004_1
if %bwait=206 gosub *start_short:goto *chap_019_1
if %bwait=207 gosub *start_short:hseanbgm:goto *chap_019_2
if %bwait=208 gosub *start_short:hseanbgm:goto *chap_021_1
if %bwait=209 gosub *start_short:hseanbgm:goto *chap_013_1
if %bwait=210 gosub *start_short:hseanbgm:goto *chap_008_1
if %bwait=111 screen_clear: goto *title				;「戻る」ボタン表示
if %bwait= -1 screen_clear: goto *title				;右クリック
if %bwait=-10 screen_clear: goto *title				;ESCキー
if %bwait=-11 screen_clear: goto *title				;スペースキー

goto *menu_short_page25




